%YAML 1.1
%TAG !u! tag:unity3d.com,2011:
--- !u!29 &1
SceneSettings:
  m_ObjectHideFlags: 0
  m_PVSData: 
  m_PVSObjectsArray: []
  m_PVSPortalsArray: []
  m_OcclusionBakeSettings:
    smallestOccluder: 5
    smallestHole: 0.25
    backfaceThreshold: 100
--- !u!104 &2
RenderSettings:
  m_ObjectHideFlags: 0
  serializedVersion: 7
  m_Fog: 0
  m_FogColor: {r: 0.5, g: 0.5, b: 0.5, a: 1}
  m_FogMode: 3
  m_FogDensity: 0.01
  m_LinearFogStart: 0
  m_LinearFogEnd: 300
  m_AmbientSkyColor: {r: 0.106, g: 0.1135, b: 0.1295, a: 0.5}
  m_AmbientEquatorColor: {r: 0.057, g: 0.0625, b: 0.0665, a: 0.5}
  m_AmbientGroundColor: {r: 0.0235, g: 0.0215, b: 0.0175, a: 0.5}
  m_AmbientIntensity: 0.5
  m_AmbientMode: 0
  m_SkyboxMaterial: {fileID: 2100000, guid: bac19cf49c124754196012f08c123f34, type: 2}
  m_HaloStrength: 0.5
  m_FlareStrength: 1
  m_FlareFadeSpeed: 3
  m_HaloTexture: {fileID: 0}
  m_SpotCookie: {fileID: 10001, guid: 0000000000000000e000000000000000, type: 0}
  m_DefaultReflectionMode: 1
  m_DefaultReflectionResolution: 128
  m_ReflectionBounces: 1
  m_ReflectionIntensity: 0.5
  m_CustomReflection: {fileID: 8900000, guid: bab875665efdd084bbf5606dd306cf8c, type: 3}
  m_Sun: {fileID: 0}
  m_IndirectSpecularColor: {r: 0.67433935, g: 0.62820464, b: 0.583187, a: 0.5}
--- !u!157 &4
LightmapSettings:
  m_ObjectHideFlags: 0
  serializedVersion: 7
  m_GIWorkflowMode: 1
  m_GISettings:
    serializedVersion: 2
    m_BounceScale: 1
    m_IndirectOutputScale: 1
    m_AlbedoBoost: 1
    m_TemporalCoherenceThreshold: 1
    m_EnvironmentLightingMode: 0
    m_EnableBakedLightmaps: 1
    m_EnableRealtimeLightmaps: 1
  m_LightmapEditorSettings:
    serializedVersion: 4
    m_Resolution: 2
    m_BakeResolution: 64
    m_TextureWidth: 1024
    m_TextureHeight: 1024
    m_AO: 0
    m_AOMaxDistance: 1
    m_CompAOExponent: 0
    m_CompAOExponentDirect: 0
    m_Padding: 2
    m_LightmapParameters: {fileID: 0}
    m_LightmapsBakeMode: 1
    m_TextureCompression: 1
    m_DirectLightInLightProbes: 1
    m_FinalGather: 0
    m_FinalGatherFiltering: 1
    m_FinalGatherRayCount: 1024
    m_ReflectionCompression: 2
  m_LightingDataAsset: {fileID: 112000000, guid: 9c290bf2aac59424cb2cc545d4c8cb19,
    type: 2}
  m_RuntimeCPUUsage: 25
--- !u!196 &5
NavMeshSettings:
  serializedVersion: 2
  m_ObjectHideFlags: 0
  m_BuildSettings:
    serializedVersion: 2
    agentRadius: 0.5
    agentHeight: 2
    agentSlope: 45
    agentClimb: 0.4
    ledgeDropHeight: 0
    maxJumpAcrossDistance: 0
    accuratePlacement: 0
    minRegionArea: 2
    cellSize: 0.16666667
    manualCellSize: 0
  m_NavMeshData: {fileID: 0}
--- !u!1 &6854005
GameObject:
  m_ObjectHideFlags: 0
  m_PrefabParentObject: {fileID: 121022, guid: 1bbb9f65959851443977b14c98740663, type: 2}
  m_PrefabInternal: {fileID: 1244885295}
  serializedVersion: 4
  m_Component:
  - 4: {fileID: 1244885296}
  - 33: {fileID: 6854008}
  - 23: {fileID: 6854007}
  - 65: {fileID: 6854006}
  m_Layer: 0
  m_Name: rock_d (1)
  m_TagString: Untagged
  m_Icon: {fileID: 0}
  m_NavMeshLayer: 0
  m_StaticEditorFlags: 4294967295
  m_IsActive: 1
--- !u!65 &6854006
BoxCollider:
  m_ObjectHideFlags: 0
  m_PrefabParentObject: {fileID: 6534524, guid: 1bbb9f65959851443977b14c98740663,
    type: 2}
  m_PrefabInternal: {fileID: 1244885295}
  m_GameObject: {fileID: 6854005}
  m_Material: {fileID: 0}
  m_IsTrigger: 0
  m_Enabled: 1
  serializedVersion: 2
  m_Size: {x: 0.687477, y: 1.267766, z: 0.719136}
  m_Center: {x: 0.0052045286, y: 0.43388298, z: 0.02671498}
--- !u!23 &6854007
MeshRenderer:
  m_ObjectHideFlags: 0
  m_PrefabParentObject: {fileID: 2324456, guid: 1bbb9f65959851443977b14c98740663,
    type: 2}
  m_PrefabInternal: {fileID: 1244885295}
  m_GameObject: {fileID: 6854005}
  m_Enabled: 1
  m_CastShadows: 1
  m_ReceiveShadows: 1
  m_MotionVectors: 1
  m_LightProbeUsage: 1
  m_ReflectionProbeUsage: 1
  m_Materials:
  - {fileID: 2100000, guid: 76a6016f10bc74842bb69b1a1a32753e, type: 2}
  m_SubsetIndices: 
  m_StaticBatchRoot: {fileID: 0}
  m_ProbeAnchor: {fileID: 0}
  m_LightProbeVolumeOverride: {fileID: 0}
  m_ScaleInLightmap: 1
  m_PreserveUVs: 0
  m_IgnoreNormalsForChartDetection: 0
  m_ImportantGI: 0
  m_SelectedWireframeHidden: 0
  m_MinimumChartSize: 4
  m_AutoUVMaxDistance: 0.5
  m_AutoUVMaxAngle: 89
  m_LightmapParameters: {fileID: 0}
  m_SortingLayerID: 0
  m_SortingOrder: 0
--- !u!33 &6854008
MeshFilter:
  m_ObjectHideFlags: 0
  m_PrefabParentObject: {fileID: 3394986, guid: 1bbb9f65959851443977b14c98740663,
    type: 2}
  m_PrefabInternal: {fileID: 1244885295}
  m_GameObject: {fileID: 6854005}
  m_Mesh: {fileID: 4300000, guid: bd9b79329ba9dda488da003696edc754, type: 3}
--- !u!1 &14397277
GameObject:
  m_ObjectHideFlags: 0
  m_PrefabParentObject: {fileID: 114716, guid: bb7975b4ee3bc3f40b9b2faf7e4636a2, type: 2}
  m_PrefabInternal: {fileID: 189451058}
  serializedVersion: 4
  m_Component:
  - 4: {fileID: 189451059}
  - 33: {fileID: 14397280}
  - 23: {fileID: 14397279}
  - 65: {fileID: 14397278}
  m_Layer: 0
  m_Name: rock_k
  m_TagString: Untagged
  m_Icon: {fileID: 0}
  m_NavMeshLayer: 0
  m_StaticEditorFlags: 4294967295
  m_IsActive: 1
--- !u!65 &14397278
BoxCollider:
  m_ObjectHideFlags: 0
  m_PrefabParentObject: {fileID: 6564642, guid: bb7975b4ee3bc3f40b9b2faf7e4636a2,
    type: 2}
  m_PrefabInternal: {fileID: 189451058}
  m_GameObject: {fileID: 14397277}
  m_Material: {fileID: 0}
  m_IsTrigger: 0
  m_Enabled: 1
  serializedVersion: 2
  m_Size: {x: 0.870893, y: 2.266862, z: 0.900185}
  m_Center: {x: 0.0470175, y: 0.9334309, z: -0.024246514}
--- !u!23 &14397279
MeshRenderer:
  m_ObjectHideFlags: 0
  m_PrefabParentObject: {fileID: 2373192, guid: bb7975b4ee3bc3f40b9b2faf7e4636a2,
    type: 2}
  m_PrefabInternal: {fileID: 189451058}
  m_GameObject: {fileID: 14397277}
  m_Enabled: 1
  m_CastShadows: 1
  m_ReceiveShadows: 1
  m_MotionVectors: 1
  m_LightProbeUsage: 1
  m_ReflectionProbeUsage: 1
  m_Materials:
  - {fileID: 2100000, guid: 76a6016f10bc74842bb69b1a1a32753e, type: 2}
  m_SubsetIndices: 
  m_StaticBatchRoot: {fileID: 0}
  m_ProbeAnchor: {fileID: 0}
  m_LightProbeVolumeOverride: {fileID: 0}
  m_ScaleInLightmap: 1
  m_PreserveUVs: 0
  m_IgnoreNormalsForChartDetection: 0
  m_ImportantGI: 0
  m_SelectedWireframeHidden: 0
  m_MinimumChartSize: 4
  m_AutoUVMaxDistance: 0.5
  m_AutoUVMaxAngle: 89
  m_LightmapParameters: {fileID: 0}
  m_SortingLayerID: 0
  m_SortingOrder: 0
--- !u!33 &14397280
MeshFilter:
  m_ObjectHideFlags: 0
  m_PrefabParentObject: {fileID: 3397102, guid: bb7975b4ee3bc3f40b9b2faf7e4636a2,
    type: 2}
  m_PrefabInternal: {fileID: 189451058}
  m_GameObject: {fileID: 14397277}
  m_Mesh: {fileID: 4300000, guid: a03f69509415d8147aebaf0f50552c7d, type: 3}
--- !u!1001 &165659578
Prefab:
  m_ObjectHideFlags: 0
  serializedVersion: 2
  m_Modification:
    m_TransformParent: {fileID: 1075876286}
    m_Modifications:
    - target: {fileID: 436498, guid: bb7975b4ee3bc3f40b9b2faf7e4636a2, type: 2}
      propertyPath: m_LocalPosition.x
      value: 1.67400002
      objectReference: {fileID: 0}
    - target: {fileID: 436498, guid: bb7975b4ee3bc3f40b9b2faf7e4636a2, type: 2}
      propertyPath: m_LocalPosition.y
      value: .00100000005
      objectReference: {fileID: 0}
    - target: {fileID: 436498, guid: bb7975b4ee3bc3f40b9b2faf7e4636a2, type: 2}
      propertyPath: m_LocalPosition.z
      value: .619719982
      objectReference: {fileID: 0}
    - target: {fileID: 436498, guid: bb7975b4ee3bc3f40b9b2faf7e4636a2, type: 2}
      propertyPath: m_LocalRotation.x
      value: 0
      objectReference: {fileID: 0}
    - target: {fileID: 436498, guid: bb7975b4ee3bc3f40b9b2faf7e4636a2, type: 2}
      propertyPath: m_LocalRotation.y
      value: .136054128
      objectReference: {fileID: 0}
    - target: {fileID: 436498, guid: bb7975b4ee3bc3f40b9b2faf7e4636a2, type: 2}
      propertyPath: m_LocalRotation.z
      value: 0
      objectReference: {fileID: 0}
    - target: {fileID: 436498, guid: bb7975b4ee3bc3f40b9b2faf7e4636a2, type: 2}
      propertyPath: m_LocalRotation.w
      value: -.990701437
      objectReference: {fileID: 0}
    - target: {fileID: 436498, guid: bb7975b4ee3bc3f40b9b2faf7e4636a2, type: 2}
      propertyPath: m_RootOrder
      value: 8
      objectReference: {fileID: 0}
    - target: {fileID: 436498, guid: bb7975b4ee3bc3f40b9b2faf7e4636a2, type: 2}
      propertyPath: m_LocalScale.z
      value: 1.1661216
      objectReference: {fileID: 0}
    - target: {fileID: 114716, guid: bb7975b4ee3bc3f40b9b2faf7e4636a2, type: 2}
      propertyPath: m_Name
      value: rock_k (1)
      objectReference: {fileID: 0}
    m_RemovedComponents: []
  m_ParentPrefab: {fileID: 100100000, guid: bb7975b4ee3bc3f40b9b2faf7e4636a2, type: 2}
  m_RootGameObject: {fileID: 874845271}
  m_IsPrefabParent: 0
--- !u!4 &165659579
Transform:
  m_ObjectHideFlags: 0
  m_PrefabParentObject: {fileID: 436498, guid: bb7975b4ee3bc3f40b9b2faf7e4636a2, type: 2}
  m_PrefabInternal: {fileID: 165659578}
  m_GameObject: {fileID: 874845271}
  m_LocalRotation: {x: 0, y: 0.13605413, z: 0, w: -0.99070144}
  m_LocalPosition: {x: 1.674, y: 0.001, z: 0.61972}
  m_LocalScale: {x: 1, y: 1, z: 1.1661216}
  m_LocalEulerAnglesHint: {x: 0, y: 0, z: 0}
  m_Children: []
  m_Father: {fileID: 1075876286}
  m_RootOrder: 8
--- !u!1001 &189451058
Prefab:
  m_ObjectHideFlags: 0
  serializedVersion: 2
  m_Modification:
    m_TransformParent: {fileID: 1075876286}
    m_Modifications:
    - target: {fileID: 436498, guid: bb7975b4ee3bc3f40b9b2faf7e4636a2, type: 2}
      propertyPath: m_LocalPosition.x
      value: 1.86099994
      objectReference: {fileID: 0}
    - target: {fileID: 436498, guid: bb7975b4ee3bc3f40b9b2faf7e4636a2, type: 2}
      propertyPath: m_LocalPosition.y
      value: .513000011
      objectReference: {fileID: 0}
    - target: {fileID: 436498, guid: bb7975b4ee3bc3f40b9b2faf7e4636a2, type: 2}
      propertyPath: m_LocalPosition.z
      value: -.551060021
      objectReference: {fileID: 0}
    - target: {fileID: 436498, guid: bb7975b4ee3bc3f40b9b2faf7e4636a2, type: 2}
      propertyPath: m_LocalRotation.x
      value: 0
      objectReference: {fileID: 0}
    - target: {fileID: 436498, guid: bb7975b4ee3bc3f40b9b2faf7e4636a2, type: 2}
      propertyPath: m_LocalRotation.y
      value: -.560433924
      objectReference: {fileID: 0}
    - target: {fileID: 436498, guid: bb7975b4ee3bc3f40b9b2faf7e4636a2, type: 2}
      propertyPath: m_LocalRotation.z
      value: 0
      objectReference: {fileID: 0}
    - target: {fileID: 436498, guid: bb7975b4ee3bc3f40b9b2faf7e4636a2, type: 2}
      propertyPath: m_LocalRotation.w
      value: -.828199148
      objectReference: {fileID: 0}
    - target: {fileID: 436498, guid: bb7975b4ee3bc3f40b9b2faf7e4636a2, type: 2}
      propertyPath: m_RootOrder
      value: 4
      objectReference: {fileID: 0}
    - target: {fileID: 436498, guid: bb7975b4ee3bc3f40b9b2faf7e4636a2, type: 2}
      propertyPath: m_LocalScale.z
      value: 1.00000048
      objectReference: {fileID: 0}
    - target: {fileID: 436498, guid: bb7975b4ee3bc3f40b9b2faf7e4636a2, type: 2}
      propertyPath: m_LocalScale.x
      value: 1.1661216
      objectReference: {fileID: 0}
    m_RemovedComponents: []
  m_ParentPrefab: {fileID: 100100000, guid: bb7975b4ee3bc3f40b9b2faf7e4636a2, type: 2}
  m_RootGameObject: {fileID: 14397277}
  m_IsPrefabParent: 0
--- !u!4 &189451059
Transform:
  m_ObjectHideFlags: 0
  m_PrefabParentObject: {fileID: 436498, guid: bb7975b4ee3bc3f40b9b2faf7e4636a2, type: 2}
  m_PrefabInternal: {fileID: 189451058}
  m_GameObject: {fileID: 14397277}
  m_LocalRotation: {x: 0, y: -0.5604339, z: 0, w: -0.82819915}
  m_LocalPosition: {x: 1.861, y: 0.513, z: -0.55106}
  m_LocalScale: {x: 1.1661216, y: 1, z: 1.0000005}
  m_LocalEulerAnglesHint: {x: 0, y: 0, z: 0}
  m_Children: []
  m_Father: {fileID: 1075876286}
  m_RootOrder: 4
--- !u!1001 &220698030
Prefab:
  m_ObjectHideFlags: 0
  serializedVersion: 2
  m_Modification:
    m_TransformParent: {fileID: 1075876286}
    m_Modifications:
    - target: {fileID: 416522, guid: bee8d047e16101c438fb33382ab66935, type: 2}
      propertyPath: m_LocalPosition.x
      value: 3.14299989
      objectReference: {fileID: 0}
    - target: {fileID: 416522, guid: bee8d047e16101c438fb33382ab66935, type: 2}
      propertyPath: m_LocalPosition.y
      value: 1.852
      objectReference: {fileID: 0}
    - target: {fileID: 416522, guid: bee8d047e16101c438fb33382ab66935, type: 2}
      propertyPath: m_LocalPosition.z
      value: .646000028
      objectReference: {fileID: 0}
    - target: {fileID: 416522, guid: bee8d047e16101c438fb33382ab66935, type: 2}
      propertyPath: m_LocalRotation.x
      value: 0
      objectReference: {fileID: 0}
    - target: {fileID: 416522, guid: bee8d047e16101c438fb33382ab66935, type: 2}
      propertyPath: m_LocalRotation.y
      value: -.109387591
      objectReference: {fileID: 0}
    - target: {fileID: 416522, guid: bee8d047e16101c438fb33382ab66935, type: 2}
      propertyPath: m_LocalRotation.z
      value: 0
      objectReference: {fileID: 0}
    - target: {fileID: 416522, guid: bee8d047e16101c438fb33382ab66935, type: 2}
      propertyPath: m_LocalRotation.w
      value: -.993999183
      objectReference: {fileID: 0}
    - target: {fileID: 416522, guid: bee8d047e16101c438fb33382ab66935, type: 2}
      propertyPath: m_RootOrder
      value: 12
      objectReference: {fileID: 0}
    - target: {fileID: 179510, guid: bee8d047e16101c438fb33382ab66935, type: 2}
      propertyPath: m_Name
      value: rock_e (2)
      objectReference: {fileID: 0}
    m_RemovedComponents: []
  m_ParentPrefab: {fileID: 100100000, guid: bee8d047e16101c438fb33382ab66935, type: 2}
  m_RootGameObject: {fileID: 1853575239}
  m_IsPrefabParent: 0
--- !u!4 &220698031
Transform:
  m_ObjectHideFlags: 0
  m_PrefabParentObject: {fileID: 416522, guid: bee8d047e16101c438fb33382ab66935, type: 2}
  m_PrefabInternal: {fileID: 220698030}
  m_GameObject: {fileID: 1853575239}
  m_LocalRotation: {x: 0, y: -0.10938759, z: 0, w: -0.9939992}
  m_LocalPosition: {x: 3.143, y: 1.852, z: 0.646}
  m_LocalScale: {x: 1, y: 1, z: 1}
  m_LocalEulerAnglesHint: {x: 0, y: 0, z: 0}
  m_Children: []
  m_Father: {fileID: 1075876286}
  m_RootOrder: 12
--- !u!1001 &322624550
Prefab:
  m_ObjectHideFlags: 0
  serializedVersion: 2
  m_Modification:
    m_TransformParent: {fileID: 1075876286}
    m_Modifications:
    - target: {fileID: 440648, guid: 4436f5b141ae4074082424c09570acb3, type: 2}
      propertyPath: m_LocalPosition.x
      value: 3.08999991
      objectReference: {fileID: 0}
    - target: {fileID: 440648, guid: 4436f5b141ae4074082424c09570acb3, type: 2}
      propertyPath: m_LocalPosition.y
      value: 1.97000003
      objectReference: {fileID: 0}
    - target: {fileID: 440648, guid: 4436f5b141ae4074082424c09570acb3, type: 2}
      propertyPath: m_LocalPosition.z
      value: -1.00999999
      objectReference: {fileID: 0}
    - target: {fileID: 440648, guid: 4436f5b141ae4074082424c09570acb3, type: 2}
      propertyPath: m_LocalRotation.x
      value: 0
      objectReference: {fileID: 0}
    - target: {fileID: 440648, guid: 4436f5b141ae4074082424c09570acb3, type: 2}
      propertyPath: m_LocalRotation.y
      value: -.64348489
      objectReference: {fileID: 0}
    - target: {fileID: 440648, guid: 4436f5b141ae4074082424c09570acb3, type: 2}
      propertyPath: m_LocalRotation.z
      value: 0
      objectReference: {fileID: 0}
    - target: {fileID: 440648, guid: 4436f5b141ae4074082424c09570acb3, type: 2}
      propertyPath: m_LocalRotation.w
      value: -.765458882
      objectReference: {fileID: 0}
    - target: {fileID: 440648, guid: 4436f5b141ae4074082424c09570acb3, type: 2}
      propertyPath: m_RootOrder
      value: 14
      objectReference: {fileID: 0}
    - target: {fileID: 440648, guid: 4436f5b141ae4074082424c09570acb3, type: 2}
      propertyPath: m_LocalScale.x
      value: .727075934
      objectReference: {fileID: 0}
    - target: {fileID: 440648, guid: 4436f5b141ae4074082424c09570acb3, type: 2}
      propertyPath: m_LocalScale.y
      value: 1.02998793
      objectReference: {fileID: 0}
    - target: {fileID: 440648, guid: 4436f5b141ae4074082424c09570acb3, type: 2}
      propertyPath: m_LocalScale.z
      value: .727075934
      objectReference: {fileID: 0}
    - target: {fileID: 103450, guid: 4436f5b141ae4074082424c09570acb3, type: 2}
      propertyPath: m_Name
      value: rock_b (1)
      objectReference: {fileID: 0}
    m_RemovedComponents: []
  m_ParentPrefab: {fileID: 100100000, guid: 4436f5b141ae4074082424c09570acb3, type: 2}
  m_RootGameObject: {fileID: 1161919350}
  m_IsPrefabParent: 0
--- !u!4 &322624551
Transform:
  m_ObjectHideFlags: 0
  m_PrefabParentObject: {fileID: 440648, guid: 4436f5b141ae4074082424c09570acb3, type: 2}
  m_PrefabInternal: {fileID: 322624550}
  m_GameObject: {fileID: 1161919350}
  m_LocalRotation: {x: 0, y: -0.6434849, z: 0, w: -0.7654589}
  m_LocalPosition: {x: 3.09, y: 1.97, z: -1.01}
  m_LocalScale: {x: 0.72707593, y: 1.0299879, z: 0.72707593}
  m_LocalEulerAnglesHint: {x: 0, y: 0, z: 0}
  m_Children: []
  m_Father: {fileID: 1075876286}
  m_RootOrder: 14
--- !u!1001 &347600057
Prefab:
  m_ObjectHideFlags: 0
  serializedVersion: 2
  m_Modification:
    m_TransformParent: {fileID: 1075876286}
    m_Modifications:
    - target: {fileID: 437022, guid: de863afb481be364ea04e5a347f5967f, type: 2}
      propertyPath: m_LocalPosition.x
      value: 1.45799994
      objectReference: {fileID: 0}
    - target: {fileID: 437022, guid: de863afb481be364ea04e5a347f5967f, type: 2}
      propertyPath: m_LocalPosition.y
      value: 0
      objectReference: {fileID: 0}
    - target: {fileID: 437022, guid: de863afb481be364ea04e5a347f5967f, type: 2}
      propertyPath: m_LocalPosition.z
      value: 1.67739999
      objectReference: {fileID: 0}
    - target: {fileID: 437022, guid: de863afb481be364ea04e5a347f5967f, type: 2}
      propertyPath: m_LocalRotation.x
      value: 0
      objectReference: {fileID: 0}
    - target: {fileID: 437022, guid: de863afb481be364ea04e5a347f5967f, type: 2}
      propertyPath: m_LocalRotation.y
      value: -.937579811
      objectReference: {fileID: 0}
    - target: {fileID: 437022, guid: de863afb481be364ea04e5a347f5967f, type: 2}
      propertyPath: m_LocalRotation.z
      value: 0
      objectReference: {fileID: 0}
    - target: {fileID: 437022, guid: de863afb481be364ea04e5a347f5967f, type: 2}
      propertyPath: m_LocalRotation.w
      value: -.347770303
      objectReference: {fileID: 0}
    - target: {fileID: 437022, guid: de863afb481be364ea04e5a347f5967f, type: 2}
      propertyPath: m_RootOrder
      value: 0
      objectReference: {fileID: 0}
    - target: {fileID: 437022, guid: de863afb481be364ea04e5a347f5967f, type: 2}
      propertyPath: m_LocalScale.z
      value: 1.1661216
      objectReference: {fileID: 0}
    m_RemovedComponents: []
  m_ParentPrefab: {fileID: 100100000, guid: de863afb481be364ea04e5a347f5967f, type: 2}
  m_RootGameObject: {fileID: 1047143419}
  m_IsPrefabParent: 0
--- !u!4 &347600058
Transform:
  m_ObjectHideFlags: 0
  m_PrefabParentObject: {fileID: 437022, guid: de863afb481be364ea04e5a347f5967f, type: 2}
  m_PrefabInternal: {fileID: 347600057}
  m_GameObject: {fileID: 1047143419}
  m_LocalRotation: {x: 0, y: -0.9375798, z: 0, w: -0.3477703}
  m_LocalPosition: {x: 1.458, y: 0, z: 1.6774}
  m_LocalScale: {x: 1, y: 1, z: 1.1661216}
  m_LocalEulerAnglesHint: {x: 0, y: 0, z: 0}
  m_Children: []
  m_Father: {fileID: 1075876286}
  m_RootOrder: 0
--- !u!1001 &359757806
Prefab:
  m_ObjectHideFlags: 0
  serializedVersion: 2
  m_Modification:
    m_TransformParent: {fileID: 1603946219}
    m_Modifications:
    - target: {fileID: 400000, guid: 4c036fbba801f0645a68fba332358ddd, type: 3}
      propertyPath: m_LocalPosition.x
      value: 0
      objectReference: {fileID: 0}
    - target: {fileID: 400000, guid: 4c036fbba801f0645a68fba332358ddd, type: 3}
      propertyPath: m_LocalPosition.y
      value: 0
      objectReference: {fileID: 0}
    - target: {fileID: 400000, guid: 4c036fbba801f0645a68fba332358ddd, type: 3}
      propertyPath: m_LocalPosition.z
      value: 0
      objectReference: {fileID: 0}
    - target: {fileID: 400000, guid: 4c036fbba801f0645a68fba332358ddd, type: 3}
      propertyPath: m_LocalRotation.x
      value: 0
      objectReference: {fileID: 0}
    - target: {fileID: 400000, guid: 4c036fbba801f0645a68fba332358ddd, type: 3}
      propertyPath: m_LocalRotation.y
      value: 0
      objectReference: {fileID: 0}
    - target: {fileID: 400000, guid: 4c036fbba801f0645a68fba332358ddd, type: 3}
      propertyPath: m_LocalRotation.z
      value: 0
      objectReference: {fileID: 0}
    - target: {fileID: 400000, guid: 4c036fbba801f0645a68fba332358ddd, type: 3}
      propertyPath: m_LocalRotation.w
      value: 1
      objectReference: {fileID: 0}
    - target: {fileID: 400000, guid: 4c036fbba801f0645a68fba332358ddd, type: 3}
      propertyPath: m_RootOrder
      value: 1
      objectReference: {fileID: 0}
    - target: {fileID: 2300000, guid: 4c036fbba801f0645a68fba332358ddd, type: 3}
      propertyPath: m_Materials.Array.data[0]
      value: 
      objectReference: {fileID: 2100000, guid: 3e9f0db9ec9f43b48be4e019a749f8be, type: 2}
    m_RemovedComponents: []
  m_ParentPrefab: {fileID: 100100000, guid: 4c036fbba801f0645a68fba332358ddd, type: 3}
  m_RootGameObject: {fileID: 991678728}
  m_IsPrefabParent: 0
--- !u!4 &359757807
Transform:
  m_ObjectHideFlags: 0
  m_PrefabParentObject: {fileID: 400000, guid: 4c036fbba801f0645a68fba332358ddd, type: 3}
  m_PrefabInternal: {fileID: 359757806}
  m_GameObject: {fileID: 991678728}
  m_LocalRotation: {x: 0, y: 0, z: 0, w: 1}
  m_LocalPosition: {x: 0, y: 0, z: 0}
  m_LocalScale: {x: 1, y: 1, z: 1}
  m_LocalEulerAnglesHint: {x: 0, y: 0, z: 0}
  m_Children: []
  m_Father: {fileID: 1603946219}
  m_RootOrder: 1
--- !u!1 &415239504
GameObject:
  m_ObjectHideFlags: 0
  m_PrefabParentObject: {fileID: 179510, guid: bee8d047e16101c438fb33382ab66935, type: 2}
  m_PrefabInternal: {fileID: 752245349}
  serializedVersion: 4
  m_Component:
  - 4: {fileID: 752245350}
  - 33: {fileID: 415239507}
  - 23: {fileID: 415239506}
  - 65: {fileID: 415239505}
  m_Layer: 0
  m_Name: rock_e
  m_TagString: Untagged
  m_Icon: {fileID: 0}
  m_NavMeshLayer: 0
  m_StaticEditorFlags: 4294967295
  m_IsActive: 1
--- !u!65 &415239505
BoxCollider:
  m_ObjectHideFlags: 0
  m_PrefabParentObject: {fileID: 6553658, guid: bee8d047e16101c438fb33382ab66935,
    type: 2}
  m_PrefabInternal: {fileID: 752245349}
  m_GameObject: {fileID: 415239504}
  m_Material: {fileID: 0}
  m_IsTrigger: 0
  m_Enabled: 1
  serializedVersion: 2
  m_Size: {x: 0.99902785, y: 1.2462721, z: 0.96796495}
  m_Center: {x: -0.055308983, y: 0.423136, z: 0.02385047}
--- !u!23 &415239506
MeshRenderer:
  m_ObjectHideFlags: 0
  m_PrefabParentObject: {fileID: 2322844, guid: bee8d047e16101c438fb33382ab66935,
    type: 2}
  m_PrefabInternal: {fileID: 752245349}
  m_GameObject: {fileID: 415239504}
  m_Enabled: 1
  m_CastShadows: 1
  m_ReceiveShadows: 1
  m_MotionVectors: 1
  m_LightProbeUsage: 1
  m_ReflectionProbeUsage: 1
  m_Materials:
  - {fileID: 2100000, guid: 76a6016f10bc74842bb69b1a1a32753e, type: 2}
  m_SubsetIndices: 
  m_StaticBatchRoot: {fileID: 0}
  m_ProbeAnchor: {fileID: 0}
  m_LightProbeVolumeOverride: {fileID: 0}
  m_ScaleInLightmap: 1
  m_PreserveUVs: 0
  m_IgnoreNormalsForChartDetection: 0
  m_ImportantGI: 0
  m_SelectedWireframeHidden: 0
  m_MinimumChartSize: 4
  m_AutoUVMaxDistance: 0.5
  m_AutoUVMaxAngle: 89
  m_LightmapParameters: {fileID: 0}
  m_SortingLayerID: 0
  m_SortingOrder: 0
--- !u!33 &415239507
MeshFilter:
  m_ObjectHideFlags: 0
  m_PrefabParentObject: {fileID: 3338112, guid: bee8d047e16101c438fb33382ab66935,
    type: 2}
  m_PrefabInternal: {fileID: 752245349}
  m_GameObject: {fileID: 415239504}
  m_Mesh: {fileID: 4300000, guid: 7f3f9dd74e3766a4dbf5bdbbc9ee54ff, type: 3}
--- !u!1 &428160911
GameObject:
  m_ObjectHideFlags: 0
  m_PrefabParentObject: {fileID: 190226, guid: 50673ce029549f04d8a30a3886523aad, type: 2}
  m_PrefabInternal: {fileID: 904367615}
  serializedVersion: 4
  m_Component:
  - 4: {fileID: 904367616}
  - 33: {fileID: 428160914}
  - 23: {fileID: 428160913}
  - 65: {fileID: 428160912}
  m_Layer: 0
  m_Name: rock_f
  m_TagString: Untagged
  m_Icon: {fileID: 0}
  m_NavMeshLayer: 0
  m_StaticEditorFlags: 4294967295
  m_IsActive: 1
--- !u!65 &428160912
BoxCollider:
  m_ObjectHideFlags: 0
  m_PrefabParentObject: {fileID: 6594526, guid: 50673ce029549f04d8a30a3886523aad,
    type: 2}
  m_PrefabInternal: {fileID: 904367615}
  m_GameObject: {fileID: 428160911}
  m_Material: {fileID: 0}
  m_IsTrigger: 0
  m_Enabled: 1
  serializedVersion: 2
  m_Size: {x: 0.891011, y: 1.071393, z: 0.816171}
  m_Center: {x: -0.009281501, y: 0.33569652, z: 0.044110507}
--- !u!23 &428160913
MeshRenderer:
  m_ObjectHideFlags: 0
  m_PrefabParentObject: {fileID: 2392414, guid: 50673ce029549f04d8a30a3886523aad,
    type: 2}
  m_PrefabInternal: {fileID: 904367615}
  m_GameObject: {fileID: 428160911}
  m_Enabled: 1
  m_CastShadows: 1
  m_ReceiveShadows: 1
  m_MotionVectors: 1
  m_LightProbeUsage: 1
  m_ReflectionProbeUsage: 1
  m_Materials:
  - {fileID: 2100000, guid: 76a6016f10bc74842bb69b1a1a32753e, type: 2}
  m_SubsetIndices: 
  m_StaticBatchRoot: {fileID: 0}
  m_ProbeAnchor: {fileID: 0}
  m_LightProbeVolumeOverride: {fileID: 0}
  m_ScaleInLightmap: 1
  m_PreserveUVs: 0
  m_IgnoreNormalsForChartDetection: 0
  m_ImportantGI: 0
  m_SelectedWireframeHidden: 0
  m_MinimumChartSize: 4
  m_AutoUVMaxDistance: 0.5
  m_AutoUVMaxAngle: 89
  m_LightmapParameters: {fileID: 0}
  m_SortingLayerID: 0
  m_SortingOrder: 0
--- !u!33 &428160914
MeshFilter:
  m_ObjectHideFlags: 0
  m_PrefabParentObject: {fileID: 3371978, guid: 50673ce029549f04d8a30a3886523aad,
    type: 2}
  m_PrefabInternal: {fileID: 904367615}
  m_GameObject: {fileID: 428160911}
  m_Mesh: {fileID: 4300000, guid: 18825f1b116444645925daec351e81ba, type: 3}
--- !u!1001 &451578328
Prefab:
  m_ObjectHideFlags: 0
  serializedVersion: 2
  m_Modification:
    m_TransformParent: {fileID: 1075876286}
    m_Modifications:
    - target: {fileID: 499504, guid: 5c5d6555d9ad54d49a4654c80774e668, type: 2}
      propertyPath: m_LocalPosition.x
      value: 2.01600003
      objectReference: {fileID: 0}
    - target: {fileID: 499504, guid: 5c5d6555d9ad54d49a4654c80774e668, type: 2}
      propertyPath: m_LocalPosition.y
      value: .986000001
      objectReference: {fileID: 0}
    - target: {fileID: 499504, guid: 5c5d6555d9ad54d49a4654c80774e668, type: 2}
      propertyPath: m_LocalPosition.z
      value: 1.66690004
      objectReference: {fileID: 0}
    - target: {fileID: 499504, guid: 5c5d6555d9ad54d49a4654c80774e668, type: 2}
      propertyPath: m_LocalRotation.x
      value: 0
      objectReference: {fileID: 0}
    - target: {fileID: 499504, guid: 5c5d6555d9ad54d49a4654c80774e668, type: 2}
      propertyPath: m_LocalRotation.y
      value: -.904099524
      objectReference: {fileID: 0}
    - target: {fileID: 499504, guid: 5c5d6555d9ad54d49a4654c80774e668, type: 2}
      propertyPath: m_LocalRotation.z
      value: 0
      objectReference: {fileID: 0}
    - target: {fileID: 499504, guid: 5c5d6555d9ad54d49a4654c80774e668, type: 2}
      propertyPath: m_LocalRotation.w
      value: -.427322
      objectReference: {fileID: 0}
    - target: {fileID: 499504, guid: 5c5d6555d9ad54d49a4654c80774e668, type: 2}
      propertyPath: m_RootOrder
      value: 7
      objectReference: {fileID: 0}
    - target: {fileID: 499504, guid: 5c5d6555d9ad54d49a4654c80774e668, type: 2}
      propertyPath: m_LocalScale.z
      value: 1.1661216
      objectReference: {fileID: 0}
    m_RemovedComponents: []
  m_ParentPrefab: {fileID: 100100000, guid: 5c5d6555d9ad54d49a4654c80774e668, type: 2}
  m_RootGameObject: {fileID: 1758337463}
  m_IsPrefabParent: 0
--- !u!4 &451578329
Transform:
  m_ObjectHideFlags: 0
  m_PrefabParentObject: {fileID: 499504, guid: 5c5d6555d9ad54d49a4654c80774e668, type: 2}
  m_PrefabInternal: {fileID: 451578328}
  m_GameObject: {fileID: 1758337463}
  m_LocalRotation: {x: 0, y: -0.9040995, z: 0, w: -0.427322}
  m_LocalPosition: {x: 2.016, y: 0.986, z: 1.6669}
  m_LocalScale: {x: 1, y: 1, z: 1.1661216}
  m_LocalEulerAnglesHint: {x: 0, y: 0, z: 0}
  m_Children: []
  m_Father: {fileID: 1075876286}
  m_RootOrder: 7
--- !u!1 &473990958
GameObject:
  m_ObjectHideFlags: 0
  m_PrefabParentObject: {fileID: 121022, guid: 1bbb9f65959851443977b14c98740663, type: 2}
  m_PrefabInternal: {fileID: 1941949286}
  serializedVersion: 4
  m_Component:
  - 4: {fileID: 1941949287}
  - 33: {fileID: 473990961}
  - 23: {fileID: 473990960}
  - 65: {fileID: 473990959}
  m_Layer: 0
  m_Name: rock_d
  m_TagString: Untagged
  m_Icon: {fileID: 0}
  m_NavMeshLayer: 0
  m_StaticEditorFlags: 4294967295
  m_IsActive: 1
--- !u!65 &473990959
BoxCollider:
  m_ObjectHideFlags: 0
  m_PrefabParentObject: {fileID: 6534524, guid: 1bbb9f65959851443977b14c98740663,
    type: 2}
  m_PrefabInternal: {fileID: 1941949286}
  m_GameObject: {fileID: 473990958}
  m_Material: {fileID: 0}
  m_IsTrigger: 0
  m_Enabled: 1
  serializedVersion: 2
  m_Size: {x: 0.687477, y: 1.267766, z: 0.719136}
  m_Center: {x: 0.0052045286, y: 0.43388298, z: 0.02671498}
--- !u!23 &473990960
MeshRenderer:
  m_ObjectHideFlags: 0
  m_PrefabParentObject: {fileID: 2324456, guid: 1bbb9f65959851443977b14c98740663,
    type: 2}
  m_PrefabInternal: {fileID: 1941949286}
  m_GameObject: {fileID: 473990958}
  m_Enabled: 1
  m_CastShadows: 1
  m_ReceiveShadows: 1
  m_MotionVectors: 1
  m_LightProbeUsage: 1
  m_ReflectionProbeUsage: 1
  m_Materials:
  - {fileID: 2100000, guid: 76a6016f10bc74842bb69b1a1a32753e, type: 2}
  m_SubsetIndices: 
  m_StaticBatchRoot: {fileID: 0}
  m_ProbeAnchor: {fileID: 0}
  m_LightProbeVolumeOverride: {fileID: 0}
  m_ScaleInLightmap: 1
  m_PreserveUVs: 0
  m_IgnoreNormalsForChartDetection: 0
  m_ImportantGI: 0
  m_SelectedWireframeHidden: 0
  m_MinimumChartSize: 4
  m_AutoUVMaxDistance: 0.5
  m_AutoUVMaxAngle: 89
  m_LightmapParameters: {fileID: 0}
  m_SortingLayerID: 0
  m_SortingOrder: 0
--- !u!33 &473990961
MeshFilter:
  m_ObjectHideFlags: 0
  m_PrefabParentObject: {fileID: 3394986, guid: 1bbb9f65959851443977b14c98740663,
    type: 2}
  m_PrefabInternal: {fileID: 1941949286}
  m_GameObject: {fileID: 473990958}
  m_Mesh: {fileID: 4300000, guid: bd9b79329ba9dda488da003696edc754, type: 3}
--- !u!1 &478454498
GameObject:
  m_ObjectHideFlags: 0
  m_PrefabParentObject: {fileID: 156434, guid: 1643ab6b0160ab240a595db4bfb21c56, type: 2}
  m_PrefabInternal: {fileID: 2129868575}
  serializedVersion: 4
  m_Component:
  - 4: {fileID: 2129868576}
  - 33: {fileID: 478454501}
  - 23: {fileID: 478454500}
  - 65: {fileID: 478454499}
  m_Layer: 0
  m_Name: rock_j
  m_TagString: Untagged
  m_Icon: {fileID: 0}
  m_NavMeshLayer: 0
  m_StaticEditorFlags: 4294967295
  m_IsActive: 1
--- !u!65 &478454499
BoxCollider:
  m_ObjectHideFlags: 0
  m_PrefabParentObject: {fileID: 6590200, guid: 1643ab6b0160ab240a595db4bfb21c56,
    type: 2}
  m_PrefabInternal: {fileID: 2129868575}
  m_GameObject: {fileID: 478454498}
  m_Material: {fileID: 0}
  m_IsTrigger: 0
  m_Enabled: 1
  serializedVersion: 2
  m_Size: {x: 1.0930309, y: 2.3134341, z: 1.017988}
  m_Center: {x: 0.030946523, y: 0.956717, z: 0.033107027}
--- !u!23 &478454500
MeshRenderer:
  m_ObjectHideFlags: 0
  m_PrefabParentObject: {fileID: 2349128, guid: 1643ab6b0160ab240a595db4bfb21c56,
    type: 2}
  m_PrefabInternal: {fileID: 2129868575}
  m_GameObject: {fileID: 478454498}
  m_Enabled: 1
  m_CastShadows: 1
  m_ReceiveShadows: 1
  m_MotionVectors: 1
  m_LightProbeUsage: 1
  m_ReflectionProbeUsage: 1
  m_Materials:
  - {fileID: 2100000, guid: 76a6016f10bc74842bb69b1a1a32753e, type: 2}
  m_SubsetIndices: 
  m_StaticBatchRoot: {fileID: 0}
  m_ProbeAnchor: {fileID: 0}
  m_LightProbeVolumeOverride: {fileID: 0}
  m_ScaleInLightmap: 1
  m_PreserveUVs: 0
  m_IgnoreNormalsForChartDetection: 0
  m_ImportantGI: 0
  m_SelectedWireframeHidden: 0
  m_MinimumChartSize: 4
  m_AutoUVMaxDistance: 0.5
  m_AutoUVMaxAngle: 89
  m_LightmapParameters: {fileID: 0}
  m_SortingLayerID: 0
  m_SortingOrder: 0
--- !u!33 &478454501
MeshFilter:
  m_ObjectHideFlags: 0
  m_PrefabParentObject: {fileID: 3310106, guid: 1643ab6b0160ab240a595db4bfb21c56,
    type: 2}
  m_PrefabInternal: {fileID: 2129868575}
  m_GameObject: {fileID: 478454498}
  m_Mesh: {fileID: 4300000, guid: 93726671bc06c184ba6a85739484322a, type: 3}
--- !u!1001 &634951904
Prefab:
  m_ObjectHideFlags: 0
  serializedVersion: 2
  m_Modification:
    m_TransformParent: {fileID: 1075876286}
    m_Modifications:
    - target: {fileID: 493472, guid: ca5c291357dc8c54bbb0f485cdccdf17, type: 2}
      propertyPath: m_LocalPosition.x
      value: 2.17700005
      objectReference: {fileID: 0}
    - target: {fileID: 493472, guid: ca5c291357dc8c54bbb0f485cdccdf17, type: 2}
      propertyPath: m_LocalPosition.y
      value: 0
      objectReference: {fileID: 0}
    - target: {fileID: 493472, guid: ca5c291357dc8c54bbb0f485cdccdf17, type: 2}
      propertyPath: m_LocalPosition.z
      value: -.0869449973
      objectReference: {fileID: 0}
    - target: {fileID: 493472, guid: ca5c291357dc8c54bbb0f485cdccdf17, type: 2}
      propertyPath: m_LocalRotation.x
      value: 0
      objectReference: {fileID: 0}
    - target: {fileID: 493472, guid: ca5c291357dc8c54bbb0f485cdccdf17, type: 2}
      propertyPath: m_LocalRotation.y
      value: -.575062215
      objectReference: {fileID: 0}
    - target: {fileID: 493472, guid: ca5c291357dc8c54bbb0f485cdccdf17, type: 2}
      propertyPath: m_LocalRotation.z
      value: 0
      objectReference: {fileID: 0}
    - target: {fileID: 493472, guid: ca5c291357dc8c54bbb0f485cdccdf17, type: 2}
      propertyPath: m_LocalRotation.w
      value: -.818109691
      objectReference: {fileID: 0}
    - target: {fileID: 493472, guid: ca5c291357dc8c54bbb0f485cdccdf17, type: 2}
      propertyPath: m_RootOrder
      value: 1
      objectReference: {fileID: 0}
    - target: {fileID: 493472, guid: ca5c291357dc8c54bbb0f485cdccdf17, type: 2}
      propertyPath: m_LocalScale.x
      value: 1.31112468
      objectReference: {fileID: 0}
    - target: {fileID: 493472, guid: ca5c291357dc8c54bbb0f485cdccdf17, type: 2}
      propertyPath: m_LocalScale.y
      value: 1.12434649
      objectReference: {fileID: 0}
    - target: {fileID: 493472, guid: ca5c291357dc8c54bbb0f485cdccdf17, type: 2}
      propertyPath: m_LocalScale.z
      value: 1.12434697
      objectReference: {fileID: 0}
    m_RemovedComponents: []
  m_ParentPrefab: {fileID: 100100000, guid: ca5c291357dc8c54bbb0f485cdccdf17, type: 2}
  m_RootGameObject: {fileID: 1662441859}
  m_IsPrefabParent: 0
--- !u!4 &634951905
Transform:
  m_ObjectHideFlags: 0
  m_PrefabParentObject: {fileID: 493472, guid: ca5c291357dc8c54bbb0f485cdccdf17, type: 2}
  m_PrefabInternal: {fileID: 634951904}
  m_GameObject: {fileID: 1662441859}
  m_LocalRotation: {x: 0, y: -0.5750622, z: 0, w: -0.8181097}
  m_LocalPosition: {x: 2.177, y: 0, z: -0.086945}
  m_LocalScale: {x: 1.3111247, y: 1.1243465, z: 1.124347}
  m_LocalEulerAnglesHint: {x: 0, y: 0, z: 0}
  m_Children: []
  m_Father: {fileID: 1075876286}
  m_RootOrder: 1
--- !u!1 &651690987
GameObject:
  m_ObjectHideFlags: 0
  m_PrefabParentObject: {fileID: 161598, guid: 9838f503122e261409e6efaf72c2a6b2, type: 2}
  m_PrefabInternal: {fileID: 1132393836}
  serializedVersion: 4
  m_Component:
  - 4: {fileID: 651690988}
  - 108: {fileID: 651690989}
  m_Layer: 0
  m_Name: light_tertiary
  m_TagString: Untagged
  m_Icon: {fileID: 0}
  m_NavMeshLayer: 0
  m_StaticEditorFlags: 4294967295
  m_IsActive: 1
--- !u!4 &651690988
Transform:
  m_ObjectHideFlags: 0
  m_PrefabParentObject: {fileID: 491194, guid: 9838f503122e261409e6efaf72c2a6b2, type: 2}
  m_PrefabInternal: {fileID: 1132393836}
  m_GameObject: {fileID: 651690987}
  m_LocalRotation: {x: 0.17497529, y: -0.7116945, z: -0.06059354, w: -0.67764527}
  m_LocalPosition: {x: 0, y: 0, z: 0}
  m_LocalScale: {x: 1, y: 1, z: 1}
  m_LocalEulerAnglesHint: {x: 0, y: 0, z: 0}
  m_Children: []
  m_Father: {fileID: 1132393837}
  m_RootOrder: 2
--- !u!108 &651690989
Light:
  m_ObjectHideFlags: 0
  m_PrefabParentObject: {fileID: 10863902, guid: 9838f503122e261409e6efaf72c2a6b2,
    type: 2}
  m_PrefabInternal: {fileID: 1132393836}
  m_GameObject: {fileID: 651690987}
  m_Enabled: 1
  serializedVersion: 7
  m_Type: 1
  m_Color: {r: 0.6865052, g: 0.85294116, b: 0.620891, a: 1}
  m_Intensity: 0.25
  m_Range: 10
  m_SpotAngle: 30
  m_CookieSize: 10
  m_Shadows:
    m_Type: 0
    m_Resolution: -1
    m_CustomResolution: -1
    m_Strength: 1
    m_Bias: 0.05
    m_NormalBias: 0.4
    m_NearPlane: 0.2
  m_Cookie: {fileID: 0}
  m_DrawHalo: 0
  m_Flare: {fileID: 0}
  m_RenderMode: 0
  m_CullingMask:
    serializedVersion: 2
    m_Bits: 4294967295
  m_Lightmapping: 4
  m_AreaSize: {x: 1, y: 1}
  m_BounceIntensity: 1
  m_ShadowRadius: 0
  m_ShadowAngle: 0
--- !u!1001 &752245349
Prefab:
  m_ObjectHideFlags: 0
  serializedVersion: 2
  m_Modification:
    m_TransformParent: {fileID: 1075876286}
    m_Modifications:
    - target: {fileID: 416522, guid: bee8d047e16101c438fb33382ab66935, type: 2}
      propertyPath: m_LocalPosition.x
      value: 1.47800004
      objectReference: {fileID: 0}
    - target: {fileID: 416522, guid: bee8d047e16101c438fb33382ab66935, type: 2}
      propertyPath: m_LocalPosition.y
      value: 0
      objectReference: {fileID: 0}
    - target: {fileID: 416522, guid: bee8d047e16101c438fb33382ab66935, type: 2}
      propertyPath: m_LocalPosition.z
      value: -.959200025
      objectReference: {fileID: 0}
    - target: {fileID: 416522, guid: bee8d047e16101c438fb33382ab66935, type: 2}
      propertyPath: m_LocalRotation.x
      value: 0
      objectReference: {fileID: 0}
    - target: {fileID: 416522, guid: bee8d047e16101c438fb33382ab66935, type: 2}
      propertyPath: m_LocalRotation.y
      value: -.61278671
      objectReference: {fileID: 0}
    - target: {fileID: 416522, guid: bee8d047e16101c438fb33382ab66935, type: 2}
      propertyPath: m_LocalRotation.z
      value: 0
      objectReference: {fileID: 0}
    - target: {fileID: 416522, guid: bee8d047e16101c438fb33382ab66935, type: 2}
      propertyPath: m_LocalRotation.w
      value: -.790248394
      objectReference: {fileID: 0}
    - target: {fileID: 416522, guid: bee8d047e16101c438fb33382ab66935, type: 2}
      propertyPath: m_RootOrder
      value: 3
      objectReference: {fileID: 0}
    - target: {fileID: 416522, guid: bee8d047e16101c438fb33382ab66935, type: 2}
      propertyPath: m_LocalScale.x
      value: 1.1661216
      objectReference: {fileID: 0}
    - target: {fileID: 416522, guid: bee8d047e16101c438fb33382ab66935, type: 2}
      propertyPath: m_LocalScale.z
      value: 1.00000048
      objectReference: {fileID: 0}
    m_RemovedComponents: []
  m_ParentPrefab: {fileID: 100100000, guid: bee8d047e16101c438fb33382ab66935, type: 2}
  m_RootGameObject: {fileID: 415239504}
  m_IsPrefabParent: 0
--- !u!4 &752245350
Transform:
  m_ObjectHideFlags: 0
  m_PrefabParentObject: {fileID: 416522, guid: bee8d047e16101c438fb33382ab66935, type: 2}
  m_PrefabInternal: {fileID: 752245349}
  m_GameObject: {fileID: 415239504}
  m_LocalRotation: {x: 0, y: -0.6127867, z: 0, w: -0.7902484}
  m_LocalPosition: {x: 1.478, y: 0, z: -0.9592}
  m_LocalScale: {x: 1.1661216, y: 1, z: 1.0000005}
  m_LocalEulerAnglesHint: {x: 0, y: 0, z: 0}
  m_Children: []
  m_Father: {fileID: 1075876286}
  m_RootOrder: 3
--- !u!1 &841010779
GameObject:
  m_ObjectHideFlags: 0
  m_PrefabParentObject: {fileID: 105902, guid: 9838f503122e261409e6efaf72c2a6b2, type: 2}
  m_PrefabInternal: {fileID: 1132393836}
  serializedVersion: 4
  m_Component:
  - 4: {fileID: 841010780}
  - 108: {fileID: 841010781}
  m_Layer: 0
  m_Name: light_primary
  m_TagString: Untagged
  m_Icon: {fileID: 0}
  m_NavMeshLayer: 0
  m_StaticEditorFlags: 4294967295
  m_IsActive: 1
--- !u!4 &841010780
Transform:
  m_ObjectHideFlags: 0
  m_PrefabParentObject: {fileID: 407488, guid: 9838f503122e261409e6efaf72c2a6b2, type: 2}
  m_PrefabInternal: {fileID: 1132393836}
  m_GameObject: {fileID: 841010779}
  m_LocalRotation: {x: 0.40497306, y: -0.2591494, z: 0.120843545, w: 0.8684672}
  m_LocalPosition: {x: 0, y: 0, z: 0}
  m_LocalScale: {x: 1, y: 1, z: 1}
  m_LocalEulerAnglesHint: {x: 0, y: 0, z: 0}
  m_Children: []
  m_Father: {fileID: 1132393837}
  m_RootOrder: 0
--- !u!108 &841010781
Light:
  m_ObjectHideFlags: 0
  m_PrefabParentObject: {fileID: 10872170, guid: 9838f503122e261409e6efaf72c2a6b2,
    type: 2}
  m_PrefabInternal: {fileID: 1132393836}
  m_GameObject: {fileID: 841010779}
  m_Enabled: 1
  serializedVersion: 7
  m_Type: 1
  m_Color: {r: 1, g: 0.95686275, b: 0.8392157, a: 1}
  m_Intensity: 0.75
  m_Range: 10
  m_SpotAngle: 30
  m_CookieSize: 10
  m_Shadows:
    m_Type: 1
    m_Resolution: -1
    m_CustomResolution: -1
    m_Strength: 1
    m_Bias: 0.05
    m_NormalBias: 0
    m_NearPlane: 0.2
  m_Cookie: {fileID: 0}
  m_DrawHalo: 0
  m_Flare: {fileID: 0}
  m_RenderMode: 0
  m_CullingMask:
    serializedVersion: 2
    m_Bits: 4294967295
  m_Lightmapping: 4
  m_AreaSize: {x: 1, y: 1}
  m_BounceIntensity: 1
  m_ShadowRadius: 0
  m_ShadowAngle: 0
--- !u!1001 &847535059
Prefab:
  m_ObjectHideFlags: 0
  serializedVersion: 2
  m_Modification:
    m_TransformParent: {fileID: 1075876286}
    m_Modifications:
    - target: {fileID: 416522, guid: bee8d047e16101c438fb33382ab66935, type: 2}
      propertyPath: m_LocalPosition.x
      value: 2.21499991
      objectReference: {fileID: 0}
    - target: {fileID: 416522, guid: bee8d047e16101c438fb33382ab66935, type: 2}
      propertyPath: m_LocalPosition.y
      value: 1.83800006
      objectReference: {fileID: 0}
    - target: {fileID: 416522, guid: bee8d047e16101c438fb33382ab66935, type: 2}
      propertyPath: m_LocalPosition.z
      value: -1.03499997
      objectReference: {fileID: 0}
    - target: {fileID: 416522, guid: bee8d047e16101c438fb33382ab66935, type: 2}
      propertyPath: m_LocalRotation.x
      value: 0
      objectReference: {fileID: 0}
    - target: {fileID: 416522, guid: bee8d047e16101c438fb33382ab66935, type: 2}
      propertyPath: m_LocalRotation.y
      value: -.990103722
      objectReference: {fileID: 0}
    - target: {fileID: 416522, guid: bee8d047e16101c438fb33382ab66935, type: 2}
      propertyPath: m_LocalRotation.z
      value: 0
      objectReference: {fileID: 0}
    - target: {fileID: 416522, guid: bee8d047e16101c438fb33382ab66935, type: 2}
      propertyPath: m_LocalRotation.w
      value: .14033784
      objectReference: {fileID: 0}
    - target: {fileID: 416522, guid: bee8d047e16101c438fb33382ab66935, type: 2}
      propertyPath: m_RootOrder
      value: 6
      objectReference: {fileID: 0}
    - target: {fileID: 179510, guid: bee8d047e16101c438fb33382ab66935, type: 2}
      propertyPath: m_Name
      value: rock_e (1)
      objectReference: {fileID: 0}
    - target: {fileID: 416522, guid: bee8d047e16101c438fb33382ab66935, type: 2}
      propertyPath: m_LocalScale.x
      value: .542296767
      objectReference: {fileID: 0}
    - target: {fileID: 416522, guid: bee8d047e16101c438fb33382ab66935, type: 2}
      propertyPath: m_LocalScale.y
      value: .542296767
      objectReference: {fileID: 0}
    - target: {fileID: 416522, guid: bee8d047e16101c438fb33382ab66935, type: 2}
      propertyPath: m_LocalScale.z
      value: .632384002
      objectReference: {fileID: 0}
    m_RemovedComponents: []
  m_ParentPrefab: {fileID: 100100000, guid: bee8d047e16101c438fb33382ab66935, type: 2}
  m_RootGameObject: {fileID: 1481073262}
  m_IsPrefabParent: 0
--- !u!4 &847535060
Transform:
  m_ObjectHideFlags: 0
  m_PrefabParentObject: {fileID: 416522, guid: bee8d047e16101c438fb33382ab66935, type: 2}
  m_PrefabInternal: {fileID: 847535059}
  m_GameObject: {fileID: 1481073262}
  m_LocalRotation: {x: 0, y: -0.9901037, z: 0, w: 0.14033784}
  m_LocalPosition: {x: 2.215, y: 1.838, z: -1.035}
  m_LocalScale: {x: 0.54229677, y: 0.54229677, z: 0.632384}
  m_LocalEulerAnglesHint: {x: 0, y: 0, z: 0}
  m_Children: []
  m_Father: {fileID: 1075876286}
  m_RootOrder: 6
--- !u!1 &874845271
GameObject:
  m_ObjectHideFlags: 0
  m_PrefabParentObject: {fileID: 114716, guid: bb7975b4ee3bc3f40b9b2faf7e4636a2, type: 2}
  m_PrefabInternal: {fileID: 165659578}
  serializedVersion: 4
  m_Component:
  - 4: {fileID: 165659579}
  - 33: {fileID: 874845274}
  - 23: {fileID: 874845273}
  - 65: {fileID: 874845272}
  m_Layer: 0
  m_Name: rock_k (1)
  m_TagString: Untagged
  m_Icon: {fileID: 0}
  m_NavMeshLayer: 0
  m_StaticEditorFlags: 4294967295
  m_IsActive: 1
--- !u!65 &874845272
BoxCollider:
  m_ObjectHideFlags: 0
  m_PrefabParentObject: {fileID: 6564642, guid: bb7975b4ee3bc3f40b9b2faf7e4636a2,
    type: 2}
  m_PrefabInternal: {fileID: 165659578}
  m_GameObject: {fileID: 874845271}
  m_Material: {fileID: 0}
  m_IsTrigger: 0
  m_Enabled: 1
  serializedVersion: 2
  m_Size: {x: 0.870893, y: 2.266862, z: 0.900185}
  m_Center: {x: 0.0470175, y: 0.9334309, z: -0.024246514}
--- !u!23 &874845273
MeshRenderer:
  m_ObjectHideFlags: 0
  m_PrefabParentObject: {fileID: 2373192, guid: bb7975b4ee3bc3f40b9b2faf7e4636a2,
    type: 2}
  m_PrefabInternal: {fileID: 165659578}
  m_GameObject: {fileID: 874845271}
  m_Enabled: 1
  m_CastShadows: 1
  m_ReceiveShadows: 1
  m_MotionVectors: 1
  m_LightProbeUsage: 1
  m_ReflectionProbeUsage: 1
  m_Materials:
  - {fileID: 2100000, guid: 76a6016f10bc74842bb69b1a1a32753e, type: 2}
  m_SubsetIndices: 
  m_StaticBatchRoot: {fileID: 0}
  m_ProbeAnchor: {fileID: 0}
  m_LightProbeVolumeOverride: {fileID: 0}
  m_ScaleInLightmap: 1
  m_PreserveUVs: 0
  m_IgnoreNormalsForChartDetection: 0
  m_ImportantGI: 0
  m_SelectedWireframeHidden: 0
  m_MinimumChartSize: 4
  m_AutoUVMaxDistance: 0.5
  m_AutoUVMaxAngle: 89
  m_LightmapParameters: {fileID: 0}
  m_SortingLayerID: 0
  m_SortingOrder: 0
--- !u!33 &874845274
MeshFilter:
  m_ObjectHideFlags: 0
  m_PrefabParentObject: {fileID: 3397102, guid: bb7975b4ee3bc3f40b9b2faf7e4636a2,
    type: 2}
  m_PrefabInternal: {fileID: 165659578}
  m_GameObject: {fileID: 874845271}
  m_Mesh: {fileID: 4300000, guid: a03f69509415d8147aebaf0f50552c7d, type: 3}
--- !u!1001 &878866455
Prefab:
  m_ObjectHideFlags: 0
  serializedVersion: 2
  m_Modification:
    m_TransformParent: {fileID: 1075876286}
    m_Modifications:
    - target: {fileID: 408656, guid: 6a67aaef2f6b30443ac78ea7d762a346, type: 2}
      propertyPath: m_LocalPosition.x
      value: .755999982
      objectReference: {fileID: 0}
    - target: {fileID: 408656, guid: 6a67aaef2f6b30443ac78ea7d762a346, type: 2}
      propertyPath: m_LocalPosition.y
      value: -.175999999
      objectReference: {fileID: 0}
    - target: {fileID: 408656, guid: 6a67aaef2f6b30443ac78ea7d762a346, type: 2}
      propertyPath: m_LocalPosition.z
      value: -.150999993
      objectReference: {fileID: 0}
    - target: {fileID: 408656, guid: 6a67aaef2f6b30443ac78ea7d762a346, type: 2}
      propertyPath: m_LocalRotation.x
      value: 0
      objectReference: {fileID: 0}
    - target: {fileID: 408656, guid: 6a67aaef2f6b30443ac78ea7d762a346, type: 2}
      propertyPath: m_LocalRotation.y
      value: .604937553
      objectReference: {fileID: 0}
    - target: {fileID: 408656, guid: 6a67aaef2f6b30443ac78ea7d762a346, type: 2}
      propertyPath: m_LocalRotation.z
      value: 0
      objectReference: {fileID: 0}
    - target: {fileID: 408656, guid: 6a67aaef2f6b30443ac78ea7d762a346, type: 2}
      propertyPath: m_LocalRotation.w
      value: -.796272993
      objectReference: {fileID: 0}
    - target: {fileID: 408656, guid: 6a67aaef2f6b30443ac78ea7d762a346, type: 2}
      propertyPath: m_RootOrder
      value: 11
      objectReference: {fileID: 0}
    - target: {fileID: 408656, guid: 6a67aaef2f6b30443ac78ea7d762a346, type: 2}
      propertyPath: m_LocalScale.x
      value: .711159706
      objectReference: {fileID: 0}
    - target: {fileID: 408656, guid: 6a67aaef2f6b30443ac78ea7d762a346, type: 2}
      propertyPath: m_LocalScale.y
      value: .711159885
      objectReference: {fileID: 0}
    - target: {fileID: 408656, guid: 6a67aaef2f6b30443ac78ea7d762a346, type: 2}
      propertyPath: m_LocalScale.z
      value: .711159885
      objectReference: {fileID: 0}
    m_RemovedComponents: []
  m_ParentPrefab: {fileID: 100100000, guid: 6a67aaef2f6b30443ac78ea7d762a346, type: 2}
  m_RootGameObject: {fileID: 1464958168}
  m_IsPrefabParent: 0
--- !u!4 &878866456
Transform:
  m_ObjectHideFlags: 0
  m_PrefabParentObject: {fileID: 408656, guid: 6a67aaef2f6b30443ac78ea7d762a346, type: 2}
  m_PrefabInternal: {fileID: 878866455}
  m_GameObject: {fileID: 1464958168}
  m_LocalRotation: {x: 0, y: 0.60493755, z: 0, w: -0.796273}
  m_LocalPosition: {x: 0.756, y: -0.176, z: -0.151}
  m_LocalScale: {x: 0.7111597, y: 0.7111599, z: 0.7111599}
  m_LocalEulerAnglesHint: {x: 0, y: 0, z: 0}
  m_Children: []
  m_Father: {fileID: 1075876286}
  m_RootOrder: 11
--- !u!1001 &904367615
Prefab:
  m_ObjectHideFlags: 0
  serializedVersion: 2
  m_Modification:
    m_TransformParent: {fileID: 1075876286}
    m_Modifications:
    - target: {fileID: 496350, guid: 50673ce029549f04d8a30a3886523aad, type: 2}
      propertyPath: m_LocalPosition.x
      value: .735000014
      objectReference: {fileID: 0}
    - target: {fileID: 496350, guid: 50673ce029549f04d8a30a3886523aad, type: 2}
      propertyPath: m_LocalPosition.y
      value: -.275999993
      objectReference: {fileID: 0}
    - target: {fileID: 496350, guid: 50673ce029549f04d8a30a3886523aad, type: 2}
      propertyPath: m_LocalPosition.z
      value: -.451999992
      objectReference: {fileID: 0}
    - target: {fileID: 496350, guid: 50673ce029549f04d8a30a3886523aad, type: 2}
      propertyPath: m_LocalRotation.x
      value: 0
      objectReference: {fileID: 0}
    - target: {fileID: 496350, guid: 50673ce029549f04d8a30a3886523aad, type: 2}
      propertyPath: m_LocalRotation.y
      value: -.991461158
      objectReference: {fileID: 0}
    - target: {fileID: 496350, guid: 50673ce029549f04d8a30a3886523aad, type: 2}
      propertyPath: m_LocalRotation.z
      value: 0
      objectReference: {fileID: 0}
    - target: {fileID: 496350, guid: 50673ce029549f04d8a30a3886523aad, type: 2}
      propertyPath: m_LocalRotation.w
      value: -.130402595
      objectReference: {fileID: 0}
    - target: {fileID: 496350, guid: 50673ce029549f04d8a30a3886523aad, type: 2}
      propertyPath: m_RootOrder
      value: 10
      objectReference: {fileID: 0}
    - target: {fileID: 496350, guid: 50673ce029549f04d8a30a3886523aad, type: 2}
      propertyPath: m_LocalScale.x
      value: .555522501
      objectReference: {fileID: 0}
    - target: {fileID: 496350, guid: 50673ce029549f04d8a30a3886523aad, type: 2}
      propertyPath: m_LocalScale.y
      value: .555522561
      objectReference: {fileID: 0}
    - target: {fileID: 496350, guid: 50673ce029549f04d8a30a3886523aad, type: 2}
      propertyPath: m_LocalScale.z
      value: .555522561
      objectReference: {fileID: 0}
    - target: {fileID: 457730, guid: 50673ce029549f04d8a30a3886523aad, type: 2}
      propertyPath: m_LocalPosition.z
      value: -.165000007
      objectReference: {fileID: 0}
    m_RemovedComponents: []
  m_ParentPrefab: {fileID: 100100000, guid: 50673ce029549f04d8a30a3886523aad, type: 2}
  m_RootGameObject: {fileID: 428160911}
  m_IsPrefabParent: 0
--- !u!4 &904367616
Transform:
  m_ObjectHideFlags: 0
  m_PrefabParentObject: {fileID: 496350, guid: 50673ce029549f04d8a30a3886523aad, type: 2}
  m_PrefabInternal: {fileID: 904367615}
  m_GameObject: {fileID: 428160911}
  m_LocalRotation: {x: 0, y: -0.99146116, z: 0, w: -0.1304026}
  m_LocalPosition: {x: 0.735, y: -0.276, z: -0.452}
  m_LocalScale: {x: 0.5555225, y: 0.55552256, z: 0.55552256}
  m_LocalEulerAnglesHint: {x: 0, y: 0, z: 0}
  m_Children: []
  m_Father: {fileID: 1075876286}
  m_RootOrder: 10
--- !u!1 &991678728
GameObject:
  m_ObjectHideFlags: 0
  m_PrefabParentObject: {fileID: 100000, guid: 4c036fbba801f0645a68fba332358ddd, type: 3}
  m_PrefabInternal: {fileID: 359757806}
  serializedVersion: 4
  m_Component:
  - 4: {fileID: 359757807}
  - 33: {fileID: 991678730}
  - 23: {fileID: 991678729}
  m_Layer: 0
  m_Name: ground_c
  m_TagString: Untagged
  m_Icon: {fileID: 0}
  m_NavMeshLayer: 0
  m_StaticEditorFlags: 0
  m_IsActive: 1
--- !u!23 &991678729
MeshRenderer:
  m_ObjectHideFlags: 0
  m_PrefabParentObject: {fileID: 2300000, guid: 4c036fbba801f0645a68fba332358ddd,
    type: 3}
  m_PrefabInternal: {fileID: 359757806}
  m_GameObject: {fileID: 991678728}
  m_Enabled: 1
  m_CastShadows: 1
  m_ReceiveShadows: 1
  m_MotionVectors: 1
  m_LightProbeUsage: 1
  m_ReflectionProbeUsage: 1
  m_Materials:
  - {fileID: 2100000, guid: 3e9f0db9ec9f43b48be4e019a749f8be, type: 2}
  m_SubsetIndices: 
  m_StaticBatchRoot: {fileID: 0}
  m_ProbeAnchor: {fileID: 0}
  m_LightProbeVolumeOverride: {fileID: 0}
  m_ScaleInLightmap: 1
  m_PreserveUVs: 0
  m_IgnoreNormalsForChartDetection: 0
  m_ImportantGI: 0
  m_SelectedWireframeHidden: 0
  m_MinimumChartSize: 4
  m_AutoUVMaxDistance: 0.5
  m_AutoUVMaxAngle: 89
  m_LightmapParameters: {fileID: 0}
  m_SortingLayerID: 0
  m_SortingOrder: 0
--- !u!33 &991678730
MeshFilter:
  m_ObjectHideFlags: 0
  m_PrefabParentObject: {fileID: 3300000, guid: 4c036fbba801f0645a68fba332358ddd,
    type: 3}
  m_PrefabInternal: {fileID: 359757806}
  m_GameObject: {fileID: 991678728}
  m_Mesh: {fileID: 4300000, guid: 4c036fbba801f0645a68fba332358ddd, type: 3}
--- !u!1 &1047143419
GameObject:
  m_ObjectHideFlags: 0
  m_PrefabParentObject: {fileID: 139350, guid: de863afb481be364ea04e5a347f5967f, type: 2}
  m_PrefabInternal: {fileID: 347600057}
  serializedVersion: 4
  m_Component:
  - 4: {fileID: 347600058}
  - 33: {fileID: 1047143422}
  - 23: {fileID: 1047143421}
  - 65: {fileID: 1047143420}
  m_Layer: 0
  m_Name: rock_n
  m_TagString: Untagged
  m_Icon: {fileID: 0}
  m_NavMeshLayer: 0
  m_StaticEditorFlags: 4294967295
  m_IsActive: 1
--- !u!65 &1047143420
BoxCollider:
  m_ObjectHideFlags: 0
  m_PrefabParentObject: {fileID: 6566510, guid: de863afb481be364ea04e5a347f5967f,
    type: 2}
  m_PrefabInternal: {fileID: 347600057}
  m_GameObject: {fileID: 1047143419}
  m_Material: {fileID: 0}
  m_IsTrigger: 0
  m_Enabled: 1
  serializedVersion: 2
  m_Size: {x: 1.573624, y: 2.268154, z: 1.7554309}
  m_Center: {x: 0.009427011, y: 0.9340769, z: 0.07168454}
--- !u!23 &1047143421
MeshRenderer:
  m_ObjectHideFlags: 0
  m_PrefabParentObject: {fileID: 2320982, guid: de863afb481be364ea04e5a347f5967f,
    type: 2}
  m_PrefabInternal: {fileID: 347600057}
  m_GameObject: {fileID: 1047143419}
  m_Enabled: 1
  m_CastShadows: 1
  m_ReceiveShadows: 1
  m_MotionVectors: 1
  m_LightProbeUsage: 1
  m_ReflectionProbeUsage: 1
  m_Materials:
  - {fileID: 2100000, guid: 76a6016f10bc74842bb69b1a1a32753e, type: 2}
  m_SubsetIndices: 
  m_StaticBatchRoot: {fileID: 0}
  m_ProbeAnchor: {fileID: 0}
  m_LightProbeVolumeOverride: {fileID: 0}
  m_ScaleInLightmap: 1
  m_PreserveUVs: 0
  m_IgnoreNormalsForChartDetection: 0
  m_ImportantGI: 0
  m_SelectedWireframeHidden: 0
  m_MinimumChartSize: 4
  m_AutoUVMaxDistance: 0.5
  m_AutoUVMaxAngle: 89
  m_LightmapParameters: {fileID: 0}
  m_SortingLayerID: 0
  m_SortingOrder: 0
--- !u!33 &1047143422
MeshFilter:
  m_ObjectHideFlags: 0
  m_PrefabParentObject: {fileID: 3380074, guid: de863afb481be364ea04e5a347f5967f,
    type: 2}
  m_PrefabInternal: {fileID: 347600057}
  m_GameObject: {fileID: 1047143419}
  m_Mesh: {fileID: 4300000, guid: be97290b187d1824fb4b2d06b9505f81, type: 3}
--- !u!1 &1048220144
GameObject:
  m_ObjectHideFlags: 0
  m_PrefabParentObject: {fileID: 0}
  m_PrefabInternal: {fileID: 0}
  serializedVersion: 4
  m_Component:
  - 4: {fileID: 1048220145}
  - 20: {fileID: 1048220149}
  - 124: {fileID: 1048220148}
  - 92: {fileID: 1048220147}
  - 81: {fileID: 1048220146}
  m_Layer: 0
  m_Name: camera
  m_TagString: Untagged
  m_Icon: {fileID: 0}
  m_NavMeshLayer: 0
  m_StaticEditorFlags: 0
  m_IsActive: 1
--- !u!4 &1048220145
Transform:
  m_ObjectHideFlags: 0
  m_PrefabParentObject: {fileID: 0}
  m_PrefabInternal: {fileID: 0}
  m_GameObject: {fileID: 1048220144}
  m_LocalRotation: {x: 0.24579759, y: 0.38268328, z: -0.106380954, w: 0.88420594}
  m_LocalPosition: {x: -4.31, y: 5.25, z: -4.87}
  m_LocalScale: {x: 1, y: 1, z: 1}
  m_LocalEulerAnglesHint: {x: 0, y: 0, z: 0}
  m_Children: []
  m_Father: {fileID: 1603946219}
  m_RootOrder: 0
--- !u!81 &1048220146
AudioListener:
  m_ObjectHideFlags: 0
  m_PrefabParentObject: {fileID: 0}
  m_PrefabInternal: {fileID: 0}
  m_GameObject: {fileID: 1048220144}
  m_Enabled: 1
--- !u!92 &1048220147
Behaviour:
  m_ObjectHideFlags: 0
  m_PrefabParentObject: {fileID: 0}
  m_PrefabInternal: {fileID: 0}
  m_GameObject: {fileID: 1048220144}
  m_Enabled: 1
--- !u!124 &1048220148
Behaviour:
  m_ObjectHideFlags: 0
  m_PrefabParentObject: {fileID: 0}
  m_PrefabInternal: {fileID: 0}
  m_GameObject: {fileID: 1048220144}
  m_Enabled: 1
--- !u!20 &1048220149
Camera:
  m_ObjectHideFlags: 0
  m_PrefabParentObject: {fileID: 0}
  m_PrefabInternal: {fileID: 0}
  m_GameObject: {fileID: 1048220144}
  m_Enabled: 1
  serializedVersion: 2
  m_ClearFlags: 2
  m_BackGroundColor: {r: 0.10196078, g: 0.10196078, b: 0.10196078, a: 1}
  m_NormalizedViewPortRect:
    serializedVersion: 2
    x: 0
    y: 0
    width: 1
    height: 1
  near clip plane: 0.3
  far clip plane: 1000
  field of view: 60
  orthographic: 0
  orthographic size: 5
  m_Depth: 0
  m_CullingMask:
    serializedVersion: 2
    m_Bits: 4294967295
  m_RenderingPath: -1
  m_TargetTexture: {fileID: 0}
  m_TargetDisplay: 0
  m_TargetEye: 3
  m_HDR: 0
  m_OcclusionCulling: 1
  m_StereoConvergence: 10
  m_StereoSeparation: 0.022
  m_StereoMirrorMode: 0
--- !u!1 &1075876285
GameObject:
  m_ObjectHideFlags: 0
  m_PrefabParentObject: {fileID: 0}
  m_PrefabInternal: {fileID: 0}
  serializedVersion: 4
  m_Component:
  - 4: {fileID: 1075876286}
  m_Layer: 0
  m_Name: rocks
  m_TagString: Untagged
  m_Icon: {fileID: 0}
  m_NavMeshLayer: 0
  m_StaticEditorFlags: 0
  m_IsActive: 1
--- !u!4 &1075876286
Transform:
  m_ObjectHideFlags: 0
  m_PrefabParentObject: {fileID: 0}
  m_PrefabInternal: {fileID: 0}
  m_GameObject: {fileID: 1075876285}
  m_LocalRotation: {x: 0, y: 0, z: 0, w: 1}
  m_LocalPosition: {x: 0, y: 0, z: 0}
  m_LocalScale: {x: 1, y: 1, z: 1}
  m_LocalEulerAnglesHint: {x: 0, y: 0, z: 0}
  m_Children:
  - {fileID: 347600058}
  - {fileID: 634951905}
  - {fileID: 1271289479}
  - {fileID: 752245350}
  - {fileID: 189451059}
  - {fileID: 1941949287}
  - {fileID: 847535060}
  - {fileID: 451578329}
  - {fileID: 165659579}
  - {fileID: 1244885296}
  - {fileID: 904367616}
  - {fileID: 878866456}
  - {fileID: 220698031}
  - {fileID: 1277015841}
  - {fileID: 322624551}
  - {fileID: 2129868576}
  m_Father: {fileID: 0}
  m_RootOrder: 1
--- !u!1001 &1132393836
Prefab:
  m_ObjectHideFlags: 0
  serializedVersion: 2
  m_Modification:
    m_TransformParent: {fileID: 1603946219}
    m_Modifications:
    - target: {fileID: 494650, guid: 9838f503122e261409e6efaf72c2a6b2, type: 2}
      propertyPath: m_LocalPosition.x
      value: 0
      objectReference: {fileID: 0}
    - target: {fileID: 494650, guid: 9838f503122e261409e6efaf72c2a6b2, type: 2}
      propertyPath: m_LocalPosition.y
      value: 0
      objectReference: {fileID: 0}
    - target: {fileID: 494650, guid: 9838f503122e261409e6efaf72c2a6b2, type: 2}
      propertyPath: m_LocalPosition.z
      value: 0
      objectReference: {fileID: 0}
    - target: {fileID: 494650, guid: 9838f503122e261409e6efaf72c2a6b2, type: 2}
      propertyPath: m_LocalRotation.x
      value: 0
      objectReference: {fileID: 0}
    - target: {fileID: 494650, guid: 9838f503122e261409e6efaf72c2a6b2, type: 2}
      propertyPath: m_LocalRotation.y
      value: 0
      objectReference: {fileID: 0}
    - target: {fileID: 494650, guid: 9838f503122e261409e6efaf72c2a6b2, type: 2}
      propertyPath: m_LocalRotation.z
      value: 0
      objectReference: {fileID: 0}
    - target: {fileID: 494650, guid: 9838f503122e261409e6efaf72c2a6b2, type: 2}
      propertyPath: m_LocalRotation.w
      value: 1
      objectReference: {fileID: 0}
    - target: {fileID: 494650, guid: 9838f503122e261409e6efaf72c2a6b2, type: 2}
      propertyPath: m_RootOrder
      value: 2
      objectReference: {fileID: 0}
    m_RemovedComponents: []
  m_ParentPrefab: {fileID: 100100000, guid: 9838f503122e261409e6efaf72c2a6b2, type: 2}
  m_RootGameObject: {fileID: 1564100127}
  m_IsPrefabParent: 0
--- !u!4 &1132393837
Transform:
  m_ObjectHideFlags: 0
  m_PrefabParentObject: {fileID: 494650, guid: 9838f503122e261409e6efaf72c2a6b2, type: 2}
  m_PrefabInternal: {fileID: 1132393836}
  m_GameObject: {fileID: 1564100127}
  m_LocalRotation: {x: 0, y: 0, z: 0, w: 1}
  m_LocalPosition: {x: 0, y: 0, z: 0}
  m_LocalScale: {x: 1, y: 1, z: 1}
  m_LocalEulerAnglesHint: {x: 0, y: 0, z: 0}
  m_Children:
  - {fileID: 841010780}
  - {fileID: 1739577837}
  - {fileID: 651690988}
  m_Father: {fileID: 1603946219}
  m_RootOrder: 2
--- !u!1 &1161919350
GameObject:
  m_ObjectHideFlags: 0
  m_PrefabParentObject: {fileID: 103450, guid: 4436f5b141ae4074082424c09570acb3, type: 2}
  m_PrefabInternal: {fileID: 322624550}
  serializedVersion: 4
  m_Component:
  - 4: {fileID: 322624551}
  - 33: {fileID: 1161919353}
  - 23: {fileID: 1161919352}
  - 65: {fileID: 1161919351}
  m_Layer: 0
  m_Name: rock_b (1)
  m_TagString: Untagged
  m_Icon: {fileID: 0}
  m_NavMeshLayer: 0
  m_StaticEditorFlags: 4294967295
  m_IsActive: 1
--- !u!65 &1161919351
BoxCollider:
  m_ObjectHideFlags: 0
  m_PrefabParentObject: {fileID: 6567868, guid: 4436f5b141ae4074082424c09570acb3,
    type: 2}
  m_PrefabInternal: {fileID: 322624550}
  m_GameObject: {fileID: 1161919350}
  m_Material: {fileID: 0}
  m_IsTrigger: 0
  m_Enabled: 1
  serializedVersion: 2
  m_Size: {x: 0.68447095, y: 1.182688, z: 0.713956}
  m_Center: {x: 0.009795487, y: 0.39134398, z: 0.013170019}
--- !u!23 &1161919352
MeshRenderer:
  m_ObjectHideFlags: 0
  m_PrefabParentObject: {fileID: 2331258, guid: 4436f5b141ae4074082424c09570acb3,
    type: 2}
  m_PrefabInternal: {fileID: 322624550}
  m_GameObject: {fileID: 1161919350}
  m_Enabled: 1
  m_CastShadows: 1
  m_ReceiveShadows: 1
  m_MotionVectors: 1
  m_LightProbeUsage: 1
  m_ReflectionProbeUsage: 1
  m_Materials:
  - {fileID: 2100000, guid: 76a6016f10bc74842bb69b1a1a32753e, type: 2}
  m_SubsetIndices: 
  m_StaticBatchRoot: {fileID: 0}
  m_ProbeAnchor: {fileID: 0}
  m_LightProbeVolumeOverride: {fileID: 0}
  m_ScaleInLightmap: 1
  m_PreserveUVs: 0
  m_IgnoreNormalsForChartDetection: 0
  m_ImportantGI: 0
  m_SelectedWireframeHidden: 0
  m_MinimumChartSize: 4
  m_AutoUVMaxDistance: 0.5
  m_AutoUVMaxAngle: 89
  m_LightmapParameters: {fileID: 0}
  m_SortingLayerID: 0
  m_SortingOrder: 0
--- !u!33 &1161919353
MeshFilter:
  m_ObjectHideFlags: 0
  m_PrefabParentObject: {fileID: 3305038, guid: 4436f5b141ae4074082424c09570acb3,
    type: 2}
  m_PrefabInternal: {fileID: 322624550}
  m_GameObject: {fileID: 1161919350}
  m_Mesh: {fileID: 4300000, guid: 28642c7f20a1598488cefd7f00b94865, type: 3}
--- !u!1001 &1244885295
Prefab:
  m_ObjectHideFlags: 0
  serializedVersion: 2
  m_Modification:
    m_TransformParent: {fileID: 1075876286}
    m_Modifications:
    - target: {fileID: 448766, guid: 1bbb9f65959851443977b14c98740663, type: 2}
      propertyPath: m_LocalPosition.x
      value: .446999997
      objectReference: {fileID: 0}
    - target: {fileID: 448766, guid: 1bbb9f65959851443977b14c98740663, type: 2}
      propertyPath: m_LocalPosition.y
      value: -.187999994
      objectReference: {fileID: 0}
    - target: {fileID: 448766, guid: 1bbb9f65959851443977b14c98740663, type: 2}
      propertyPath: m_LocalPosition.z
      value: 1.19400001
      objectReference: {fileID: 0}
    - target: {fileID: 448766, guid: 1bbb9f65959851443977b14c98740663, type: 2}
      propertyPath: m_LocalRotation.x
      value: 0
      objectReference: {fileID: 0}
    - target: {fileID: 448766, guid: 1bbb9f65959851443977b14c98740663, type: 2}
      propertyPath: m_LocalRotation.y
      value: -.844833791
      objectReference: {fileID: 0}
    - target: {fileID: 448766, guid: 1bbb9f65959851443977b14c98740663, type: 2}
      propertyPath: m_LocalRotation.z
      value: 0
      objectReference: {fileID: 0}
    - target: {fileID: 448766, guid: 1bbb9f65959851443977b14c98740663, type: 2}
      propertyPath: m_LocalRotation.w
      value: -.535028934
      objectReference: {fileID: 0}
    - target: {fileID: 448766, guid: 1bbb9f65959851443977b14c98740663, type: 2}
      propertyPath: m_RootOrder
      value: 9
      objectReference: {fileID: 0}
    - target: {fileID: 121022, guid: 1bbb9f65959851443977b14c98740663, type: 2}
      propertyPath: m_Name
      value: rock_d (1)
      objectReference: {fileID: 0}
    - target: {fileID: 448766, guid: 1bbb9f65959851443977b14c98740663, type: 2}
      propertyPath: m_LocalScale.y
      value: .843819976
      objectReference: {fileID: 0}
    m_RemovedComponents: []
  m_ParentPrefab: {fileID: 100100000, guid: 1bbb9f65959851443977b14c98740663, type: 2}
  m_RootGameObject: {fileID: 6854005}
  m_IsPrefabParent: 0
--- !u!4 &1244885296
Transform:
  m_ObjectHideFlags: 0
  m_PrefabParentObject: {fileID: 448766, guid: 1bbb9f65959851443977b14c98740663, type: 2}
  m_PrefabInternal: {fileID: 1244885295}
  m_GameObject: {fileID: 6854005}
  m_LocalRotation: {x: 0, y: -0.8448338, z: 0, w: -0.53502893}
  m_LocalPosition: {x: 0.447, y: -0.188, z: 1.194}
  m_LocalScale: {x: 1, y: 0.84382, z: 1}
  m_LocalEulerAnglesHint: {x: 0, y: 0, z: 0}
  m_Children: []
  m_Father: {fileID: 1075876286}
  m_RootOrder: 9
--- !u!1001 &1271289478
Prefab:
  m_ObjectHideFlags: 0
  serializedVersion: 2
  m_Modification:
    m_TransformParent: {fileID: 1075876286}
    m_Modifications:
    - target: {fileID: 430148, guid: 7505f79cb619cfd4ebb6af0704ad4260, type: 2}
      propertyPath: m_LocalPosition.x
      value: 2.11599994
      objectReference: {fileID: 0}
    - target: {fileID: 430148, guid: 7505f79cb619cfd4ebb6af0704ad4260, type: 2}
      propertyPath: m_LocalPosition.y
      value: 0
      objectReference: {fileID: 0}
    - target: {fileID: 430148, guid: 7505f79cb619cfd4ebb6af0704ad4260, type: 2}
      propertyPath: m_LocalPosition.z
      value: -1.71490002
      objectReference: {fileID: 0}
    - target: {fileID: 430148, guid: 7505f79cb619cfd4ebb6af0704ad4260, type: 2}
      propertyPath: m_LocalRotation.x
      value: 0
      objectReference: {fileID: 0}
    - target: {fileID: 430148, guid: 7505f79cb619cfd4ebb6af0704ad4260, type: 2}
      propertyPath: m_LocalRotation.y
      value: -.696344256
      objectReference: {fileID: 0}
    - target: {fileID: 430148, guid: 7505f79cb619cfd4ebb6af0704ad4260, type: 2}
      propertyPath: m_LocalRotation.z
      value: 0
      objectReference: {fileID: 0}
    - target: {fileID: 430148, guid: 7505f79cb619cfd4ebb6af0704ad4260, type: 2}
      propertyPath: m_LocalRotation.w
      value: -.717708051
      objectReference: {fileID: 0}
    - target: {fileID: 430148, guid: 7505f79cb619cfd4ebb6af0704ad4260, type: 2}
      propertyPath: m_RootOrder
      value: 2
      objectReference: {fileID: 0}
    - target: {fileID: 430148, guid: 7505f79cb619cfd4ebb6af0704ad4260, type: 2}
      propertyPath: m_LocalScale.x
      value: 1.29695523
      objectReference: {fileID: 0}
    - target: {fileID: 430148, guid: 7505f79cb619cfd4ebb6af0704ad4260, type: 2}
      propertyPath: m_LocalScale.y
      value: 1.11219549
      objectReference: {fileID: 0}
    - target: {fileID: 430148, guid: 7505f79cb619cfd4ebb6af0704ad4260, type: 2}
      propertyPath: m_LocalScale.z
      value: 1.11219597
      objectReference: {fileID: 0}
    m_RemovedComponents: []
  m_ParentPrefab: {fileID: 100100000, guid: 7505f79cb619cfd4ebb6af0704ad4260, type: 2}
  m_RootGameObject: {fileID: 2071414836}
  m_IsPrefabParent: 0
--- !u!4 &1271289479
Transform:
  m_ObjectHideFlags: 0
  m_PrefabParentObject: {fileID: 430148, guid: 7505f79cb619cfd4ebb6af0704ad4260, type: 2}
  m_PrefabInternal: {fileID: 1271289478}
  m_GameObject: {fileID: 2071414836}
  m_LocalRotation: {x: 0, y: -0.69634426, z: 0, w: -0.71770805}
  m_LocalPosition: {x: 2.116, y: 0, z: -1.7149}
  m_LocalScale: {x: 1.2969552, y: 1.1121955, z: 1.112196}
  m_LocalEulerAnglesHint: {x: 0, y: 0, z: 0}
  m_Children: []
  m_Father: {fileID: 1075876286}
  m_RootOrder: 2
--- !u!1001 &1277015840
Prefab:
  m_ObjectHideFlags: 0
  serializedVersion: 2
  m_Modification:
    m_TransformParent: {fileID: 1075876286}
    m_Modifications:
    - target: {fileID: 440648, guid: 4436f5b141ae4074082424c09570acb3, type: 2}
      propertyPath: m_LocalPosition.x
      value: 2.6730001
      objectReference: {fileID: 0}
    - target: {fileID: 440648, guid: 4436f5b141ae4074082424c09570acb3, type: 2}
      propertyPath: m_LocalPosition.y
      value: 1.77699995
      objectReference: {fileID: 0}
    - target: {fileID: 440648, guid: 4436f5b141ae4074082424c09570acb3, type: 2}
      propertyPath: m_LocalPosition.z
      value: -.741999984
      objectReference: {fileID: 0}
    - target: {fileID: 440648, guid: 4436f5b141ae4074082424c09570acb3, type: 2}
      propertyPath: m_LocalRotation.x
      value: 0
      objectReference: {fileID: 0}
    - target: {fileID: 440648, guid: 4436f5b141ae4074082424c09570acb3, type: 2}
      propertyPath: m_LocalRotation.y
      value: -.991461158
      objectReference: {fileID: 0}
    - target: {fileID: 440648, guid: 4436f5b141ae4074082424c09570acb3, type: 2}
      propertyPath: m_LocalRotation.z
      value: 0
      objectReference: {fileID: 0}
    - target: {fileID: 440648, guid: 4436f5b141ae4074082424c09570acb3, type: 2}
      propertyPath: m_LocalRotation.w
      value: -.130402595
      objectReference: {fileID: 0}
    - target: {fileID: 440648, guid: 4436f5b141ae4074082424c09570acb3, type: 2}
      propertyPath: m_RootOrder
      value: 13
      objectReference: {fileID: 0}
    - target: {fileID: 440648, guid: 4436f5b141ae4074082424c09570acb3, type: 2}
      propertyPath: m_LocalScale.x
      value: .727075934
      objectReference: {fileID: 0}
    - target: {fileID: 440648, guid: 4436f5b141ae4074082424c09570acb3, type: 2}
      propertyPath: m_LocalScale.y
      value: .727075934
      objectReference: {fileID: 0}
    - target: {fileID: 440648, guid: 4436f5b141ae4074082424c09570acb3, type: 2}
      propertyPath: m_LocalScale.z
      value: .727075934
      objectReference: {fileID: 0}
    m_RemovedComponents: []
  m_ParentPrefab: {fileID: 100100000, guid: 4436f5b141ae4074082424c09570acb3, type: 2}
  m_RootGameObject: {fileID: 1477983631}
  m_IsPrefabParent: 0
--- !u!4 &1277015841
Transform:
  m_ObjectHideFlags: 0
  m_PrefabParentObject: {fileID: 440648, guid: 4436f5b141ae4074082424c09570acb3, type: 2}
  m_PrefabInternal: {fileID: 1277015840}
  m_GameObject: {fileID: 1477983631}
  m_LocalRotation: {x: 0, y: -0.99146116, z: 0, w: -0.1304026}
  m_LocalPosition: {x: 2.673, y: 1.777, z: -0.742}
  m_LocalScale: {x: 0.72707593, y: 0.72707593, z: 0.72707593}
  m_LocalEulerAnglesHint: {x: 0, y: 0, z: 0}
  m_Children: []
  m_Father: {fileID: 1075876286}
  m_RootOrder: 13
--- !u!1 &1464958168
GameObject:
  m_ObjectHideFlags: 0
  m_PrefabParentObject: {fileID: 109170, guid: 6a67aaef2f6b30443ac78ea7d762a346, type: 2}
  m_PrefabInternal: {fileID: 878866455}
  serializedVersion: 4
  m_Component:
  - 4: {fileID: 878866456}
  - 33: {fileID: 1464958171}
  - 23: {fileID: 1464958170}
  - 65: {fileID: 1464958169}
  m_Layer: 0
  m_Name: rock_c
  m_TagString: Untagged
  m_Icon: {fileID: 0}
  m_NavMeshLayer: 0
  m_StaticEditorFlags: 4294967295
  m_IsActive: 1
--- !u!65 &1464958169
BoxCollider:
  m_ObjectHideFlags: 0
  m_PrefabParentObject: {fileID: 6517636, guid: 6a67aaef2f6b30443ac78ea7d762a346,
    type: 2}
  m_PrefabInternal: {fileID: 878866455}
  m_GameObject: {fileID: 1464958168}
  m_Material: {fileID: 0}
  m_IsTrigger: 0
  m_Enabled: 1
  serializedVersion: 2
  m_Size: {x: 0.625497, y: 1.148514, z: 0.64740396}
  m_Center: {x: 0.0170355, y: 0.37425697, z: 0.04879698}
--- !u!23 &1464958170
MeshRenderer:
  m_ObjectHideFlags: 0
  m_PrefabParentObject: {fileID: 2342844, guid: 6a67aaef2f6b30443ac78ea7d762a346,
    type: 2}
  m_PrefabInternal: {fileID: 878866455}
  m_GameObject: {fileID: 1464958168}
  m_Enabled: 1
  m_CastShadows: 1
  m_ReceiveShadows: 1
  m_MotionVectors: 1
  m_LightProbeUsage: 1
  m_ReflectionProbeUsage: 1
  m_Materials:
  - {fileID: 2100000, guid: 76a6016f10bc74842bb69b1a1a32753e, type: 2}
  m_SubsetIndices: 
  m_StaticBatchRoot: {fileID: 0}
  m_ProbeAnchor: {fileID: 0}
  m_LightProbeVolumeOverride: {fileID: 0}
  m_ScaleInLightmap: 1
  m_PreserveUVs: 0
  m_IgnoreNormalsForChartDetection: 0
  m_ImportantGI: 0
  m_SelectedWireframeHidden: 0
  m_MinimumChartSize: 4
  m_AutoUVMaxDistance: 0.5
  m_AutoUVMaxAngle: 89
  m_LightmapParameters: {fileID: 0}
  m_SortingLayerID: 0
  m_SortingOrder: 0
--- !u!33 &1464958171
MeshFilter:
  m_ObjectHideFlags: 0
  m_PrefabParentObject: {fileID: 3338944, guid: 6a67aaef2f6b30443ac78ea7d762a346,
    type: 2}
  m_PrefabInternal: {fileID: 878866455}
  m_GameObject: {fileID: 1464958168}
  m_Mesh: {fileID: 4300000, guid: 9182df85a73960c4d87b889f3639ba9b, type: 3}
--- !u!1 &1477983631
GameObject:
  m_ObjectHideFlags: 0
  m_PrefabParentObject: {fileID: 103450, guid: 4436f5b141ae4074082424c09570acb3, type: 2}
  m_PrefabInternal: {fileID: 1277015840}
  serializedVersion: 4
  m_Component:
  - 4: {fileID: 1277015841}
  - 33: {fileID: 1477983634}
  - 23: {fileID: 1477983633}
  - 65: {fileID: 1477983632}
  m_Layer: 0
  m_Name: rock_b
  m_TagString: Untagged
  m_Icon: {fileID: 0}
  m_NavMeshLayer: 0
  m_StaticEditorFlags: 4294967295
  m_IsActive: 1
--- !u!65 &1477983632
BoxCollider:
  m_ObjectHideFlags: 0
  m_PrefabParentObject: {fileID: 6567868, guid: 4436f5b141ae4074082424c09570acb3,
    type: 2}
  m_PrefabInternal: {fileID: 1277015840}
  m_GameObject: {fileID: 1477983631}
  m_Material: {fileID: 0}
  m_IsTrigger: 0
  m_Enabled: 1
  serializedVersion: 2
  m_Size: {x: 0.68447095, y: 1.182688, z: 0.713956}
  m_Center: {x: 0.009795487, y: 0.39134398, z: 0.013170019}
--- !u!23 &1477983633
MeshRenderer:
  m_ObjectHideFlags: 0
  m_PrefabParentObject: {fileID: 2331258, guid: 4436f5b141ae4074082424c09570acb3,
    type: 2}
  m_PrefabInternal: {fileID: 1277015840}
  m_GameObject: {fileID: 1477983631}
  m_Enabled: 1
  m_CastShadows: 1
  m_ReceiveShadows: 1
  m_MotionVectors: 1
  m_LightProbeUsage: 1
  m_ReflectionProbeUsage: 1
  m_Materials:
  - {fileID: 2100000, guid: 76a6016f10bc74842bb69b1a1a32753e, type: 2}
  m_SubsetIndices: 
  m_StaticBatchRoot: {fileID: 0}
  m_ProbeAnchor: {fileID: 0}
  m_LightProbeVolumeOverride: {fileID: 0}
  m_ScaleInLightmap: 1
  m_PreserveUVs: 0
  m_IgnoreNormalsForChartDetection: 0
  m_ImportantGI: 0
  m_SelectedWireframeHidden: 0
  m_MinimumChartSize: 4
  m_AutoUVMaxDistance: 0.5
  m_AutoUVMaxAngle: 89
  m_LightmapParameters: {fileID: 0}
  m_SortingLayerID: 0
  m_SortingOrder: 0
--- !u!33 &1477983634
MeshFilter:
  m_ObjectHideFlags: 0
  m_PrefabParentObject: {fileID: 3305038, guid: 4436f5b141ae4074082424c09570acb3,
    type: 2}
  m_PrefabInternal: {fileID: 1277015840}
  m_GameObject: {fileID: 1477983631}
  m_Mesh: {fileID: 4300000, guid: 28642c7f20a1598488cefd7f00b94865, type: 3}
--- !u!1 &1481073262
GameObject:
  m_ObjectHideFlags: 0
  m_PrefabParentObject: {fileID: 179510, guid: bee8d047e16101c438fb33382ab66935, type: 2}
  m_PrefabInternal: {fileID: 847535059}
  serializedVersion: 4
  m_Component:
  - 4: {fileID: 847535060}
  - 33: {fileID: 1481073265}
  - 23: {fileID: 1481073264}
  - 65: {fileID: 1481073263}
  m_Layer: 0
  m_Name: rock_e (1)
  m_TagString: Untagged
  m_Icon: {fileID: 0}
  m_NavMeshLayer: 0
  m_StaticEditorFlags: 4294967295
  m_IsActive: 1
--- !u!65 &1481073263
BoxCollider:
  m_ObjectHideFlags: 0
  m_PrefabParentObject: {fileID: 6553658, guid: bee8d047e16101c438fb33382ab66935,
    type: 2}
  m_PrefabInternal: {fileID: 847535059}
  m_GameObject: {fileID: 1481073262}
  m_Material: {fileID: 0}
  m_IsTrigger: 0
  m_Enabled: 1
  serializedVersion: 2
  m_Size: {x: 0.99902785, y: 1.2462721, z: 0.96796495}
  m_Center: {x: -0.055308983, y: 0.423136, z: 0.02385047}
--- !u!23 &1481073264
MeshRenderer:
  m_ObjectHideFlags: 0
  m_PrefabParentObject: {fileID: 2322844, guid: bee8d047e16101c438fb33382ab66935,
    type: 2}
  m_PrefabInternal: {fileID: 847535059}
  m_GameObject: {fileID: 1481073262}
  m_Enabled: 1
  m_CastShadows: 1
  m_ReceiveShadows: 1
  m_MotionVectors: 1
  m_LightProbeUsage: 1
  m_ReflectionProbeUsage: 1
  m_Materials:
  - {fileID: 2100000, guid: 76a6016f10bc74842bb69b1a1a32753e, type: 2}
  m_SubsetIndices: 
  m_StaticBatchRoot: {fileID: 0}
  m_ProbeAnchor: {fileID: 0}
  m_LightProbeVolumeOverride: {fileID: 0}
  m_ScaleInLightmap: 1
  m_PreserveUVs: 0
  m_IgnoreNormalsForChartDetection: 0
  m_ImportantGI: 0
  m_SelectedWireframeHidden: 0
  m_MinimumChartSize: 4
  m_AutoUVMaxDistance: 0.5
  m_AutoUVMaxAngle: 89
  m_LightmapParameters: {fileID: 0}
  m_SortingLayerID: 0
  m_SortingOrder: 0
--- !u!33 &1481073265
MeshFilter:
  m_ObjectHideFlags: 0
  m_PrefabParentObject: {fileID: 3338112, guid: bee8d047e16101c438fb33382ab66935,
    type: 2}
  m_PrefabInternal: {fileID: 847535059}
  m_GameObject: {fileID: 1481073262}
  m_Mesh: {fileID: 4300000, guid: 7f3f9dd74e3766a4dbf5bdbbc9ee54ff, type: 3}
--- !u!1 &1564100127
GameObject:
  m_ObjectHideFlags: 0
  m_PrefabParentObject: {fileID: 145862, guid: 9838f503122e261409e6efaf72c2a6b2, type: 2}
  m_PrefabInternal: {fileID: 1132393836}
  serializedVersion: 4
  m_Component:
  - 4: {fileID: 1132393837}
  m_Layer: 0
  m_Name: light_rig
  m_TagString: Untagged
  m_Icon: {fileID: 0}
  m_NavMeshLayer: 0
  m_StaticEditorFlags: 4294967295
  m_IsActive: 1
--- !u!1 &1603946218
GameObject:
  m_ObjectHideFlags: 0
  m_PrefabParentObject: {fileID: 0}
  m_PrefabInternal: {fileID: 0}
  serializedVersion: 4
  m_Component:
  - 4: {fileID: 1603946219}
  m_Layer: 0
  m_Name: environment
  m_TagString: Untagged
  m_Icon: {fileID: 0}
  m_NavMeshLayer: 0
  m_StaticEditorFlags: 0
  m_IsActive: 1
--- !u!4 &1603946219
Transform:
  m_ObjectHideFlags: 0
  m_PrefabParentObject: {fileID: 0}
  m_PrefabInternal: {fileID: 0}
  m_GameObject: {fileID: 1603946218}
  m_LocalRotation: {x: 0, y: 0, z: 0, w: 1}
  m_LocalPosition: {x: 0, y: 0, z: 0}
  m_LocalScale: {x: 1, y: 1, z: 1}
  m_LocalEulerAnglesHint: {x: 0, y: 0, z: 0}
  m_Children:
  - {fileID: 1048220145}
  - {fileID: 359757807}
  - {fileID: 1132393837}
  - {fileID: 1817476846}
  m_Father: {fileID: 0}
  m_RootOrder: 0
--- !u!1 &1662441859
GameObject:
  m_ObjectHideFlags: 0
  m_PrefabParentObject: {fileID: 171860, guid: ca5c291357dc8c54bbb0f485cdccdf17, type: 2}
  m_PrefabInternal: {fileID: 634951904}
  serializedVersion: 4
  m_Component:
  - 4: {fileID: 634951905}
  - 33: {fileID: 1662441862}
  - 23: {fileID: 1662441861}
  - 65: {fileID: 1662441860}
  m_Layer: 0
  m_Name: rock_o
  m_TagString: Untagged
  m_Icon: {fileID: 0}
  m_NavMeshLayer: 0
  m_StaticEditorFlags: 4294967295
  m_IsActive: 1
--- !u!65 &1662441860
BoxCollider:
  m_ObjectHideFlags: 0
  m_PrefabParentObject: {fileID: 6573540, guid: ca5c291357dc8c54bbb0f485cdccdf17,
    type: 2}
  m_PrefabInternal: {fileID: 634951904}
  m_GameObject: {fileID: 1662441859}
  m_Material: {fileID: 0}
  m_IsTrigger: 0
  m_Enabled: 1
  serializedVersion: 2
  m_Size: {x: 1.7363069, y: 2.323628, z: 1.7973529}
  m_Center: {x: 0.119671494, y: 0.9618139, z: -0.026981473}
--- !u!23 &1662441861
MeshRenderer:
  m_ObjectHideFlags: 0
  m_PrefabParentObject: {fileID: 2358730, guid: ca5c291357dc8c54bbb0f485cdccdf17,
    type: 2}
  m_PrefabInternal: {fileID: 634951904}
  m_GameObject: {fileID: 1662441859}
  m_Enabled: 1
  m_CastShadows: 1
  m_ReceiveShadows: 1
  m_MotionVectors: 1
  m_LightProbeUsage: 1
  m_ReflectionProbeUsage: 1
  m_Materials:
  - {fileID: 2100000, guid: 76a6016f10bc74842bb69b1a1a32753e, type: 2}
  m_SubsetIndices: 
  m_StaticBatchRoot: {fileID: 0}
  m_ProbeAnchor: {fileID: 0}
  m_LightProbeVolumeOverride: {fileID: 0}
  m_ScaleInLightmap: 1
  m_PreserveUVs: 0
  m_IgnoreNormalsForChartDetection: 0
  m_ImportantGI: 0
  m_SelectedWireframeHidden: 0
  m_MinimumChartSize: 4
  m_AutoUVMaxDistance: 0.5
  m_AutoUVMaxAngle: 89
  m_LightmapParameters: {fileID: 0}
  m_SortingLayerID: 0
  m_SortingOrder: 0
--- !u!33 &1662441862
MeshFilter:
  m_ObjectHideFlags: 0
  m_PrefabParentObject: {fileID: 3309278, guid: ca5c291357dc8c54bbb0f485cdccdf17,
    type: 2}
  m_PrefabInternal: {fileID: 634951904}
  m_GameObject: {fileID: 1662441859}
  m_Mesh: {fileID: 4300000, guid: 8047fe64bb2ad034db828801e87a3a02, type: 3}
--- !u!1 &1739577836
GameObject:
  m_ObjectHideFlags: 0
  m_PrefabParentObject: {fileID: 139234, guid: 9838f503122e261409e6efaf72c2a6b2, type: 2}
  m_PrefabInternal: {fileID: 1132393836}
  serializedVersion: 4
  m_Component:
  - 4: {fileID: 1739577837}
  - 108: {fileID: 1739577838}
  m_Layer: 0
  m_Name: light_secondary
  m_TagString: Untagged
  m_Icon: {fileID: 0}
  m_NavMeshLayer: 0
  m_StaticEditorFlags: 4294967295
  m_IsActive: 1
--- !u!4 &1739577837
Transform:
  m_ObjectHideFlags: 0
  m_PrefabParentObject: {fileID: 405246, guid: 9838f503122e261409e6efaf72c2a6b2, type: 2}
  m_PrefabInternal: {fileID: 1132393836}
  m_GameObject: {fileID: 1739577836}
  m_LocalRotation: {x: 0.22194561, y: -0.8054907, z: 0.18408974, w: 0.51772183}
  m_LocalPosition: {x: 0, y: 0, z: 0}
  m_LocalScale: {x: 1, y: 1, z: 1}
  m_LocalEulerAnglesHint: {x: 0, y: 0, z: 0}
  m_Children: []
  m_Father: {fileID: 1132393837}
  m_RootOrder: 1
--- !u!108 &1739577838
Light:
  m_ObjectHideFlags: 0
  m_PrefabParentObject: {fileID: 10805726, guid: 9838f503122e261409e6efaf72c2a6b2,
    type: 2}
  m_PrefabInternal: {fileID: 1132393836}
  m_GameObject: {fileID: 1739577836}
  m_Enabled: 1
  serializedVersion: 7
  m_Type: 1
  m_Color: {r: 0.8392157, g: 0.9866937, b: 1, a: 1}
  m_Intensity: 0.5
  m_Range: 10
  m_SpotAngle: 30
  m_CookieSize: 10
  m_Shadows:
    m_Type: 0
    m_Resolution: -1
    m_CustomResolution: -1
    m_Strength: 1
    m_Bias: 0.05
    m_NormalBias: 0.4
    m_NearPlane: 0.2
  m_Cookie: {fileID: 0}
  m_DrawHalo: 0
  m_Flare: {fileID: 0}
  m_RenderMode: 0
  m_CullingMask:
    serializedVersion: 2
    m_Bits: 4294967295
  m_Lightmapping: 4
  m_AreaSize: {x: 1, y: 1}
  m_BounceIntensity: 1
  m_ShadowRadius: 0
  m_ShadowAngle: 0
--- !u!1 &1758337463
GameObject:
  m_ObjectHideFlags: 0
  m_PrefabParentObject: {fileID: 144770, guid: 5c5d6555d9ad54d49a4654c80774e668, type: 2}
  m_PrefabInternal: {fileID: 451578328}
  serializedVersion: 4
  m_Component:
  - 4: {fileID: 451578329}
  - 33: {fileID: 1758337466}
  - 23: {fileID: 1758337465}
  - 65: {fileID: 1758337464}
  m_Layer: 0
  m_Name: rock_m
  m_TagString: Untagged
  m_Icon: {fileID: 0}
  m_NavMeshLayer: 0
  m_StaticEditorFlags: 4294967295
  m_IsActive: 1
--- !u!65 &1758337464
BoxCollider:
  m_ObjectHideFlags: 0
  m_PrefabParentObject: {fileID: 6592852, guid: 5c5d6555d9ad54d49a4654c80774e668,
    type: 2}
  m_PrefabInternal: {fileID: 451578328}
  m_GameObject: {fileID: 1758337463}
  m_Material: {fileID: 0}
  m_IsTrigger: 0
  m_Enabled: 1
  serializedVersion: 2
  m_Size: {x: 1.667655, y: 2.1117318, z: 1.6446719}
  m_Center: {x: 0.0047454834, y: 0.85586596, z: -0.005260974}
--- !u!23 &1758337465
MeshRenderer:
  m_ObjectHideFlags: 0
  m_PrefabParentObject: {fileID: 2364640, guid: 5c5d6555d9ad54d49a4654c80774e668,
    type: 2}
  m_PrefabInternal: {fileID: 451578328}
  m_GameObject: {fileID: 1758337463}
  m_Enabled: 1
  m_CastShadows: 1
  m_ReceiveShadows: 1
  m_MotionVectors: 1
  m_LightProbeUsage: 1
  m_ReflectionProbeUsage: 1
  m_Materials:
  - {fileID: 2100000, guid: 76a6016f10bc74842bb69b1a1a32753e, type: 2}
  m_SubsetIndices: 
  m_StaticBatchRoot: {fileID: 0}
  m_ProbeAnchor: {fileID: 0}
  m_LightProbeVolumeOverride: {fileID: 0}
  m_ScaleInLightmap: 1
  m_PreserveUVs: 0
  m_IgnoreNormalsForChartDetection: 0
  m_ImportantGI: 0
  m_SelectedWireframeHidden: 0
  m_MinimumChartSize: 4
  m_AutoUVMaxDistance: 0.5
  m_AutoUVMaxAngle: 89
  m_LightmapParameters: {fileID: 0}
  m_SortingLayerID: 0
  m_SortingOrder: 0
--- !u!33 &1758337466
MeshFilter:
  m_ObjectHideFlags: 0
  m_PrefabParentObject: {fileID: 3379410, guid: 5c5d6555d9ad54d49a4654c80774e668,
    type: 2}
  m_PrefabInternal: {fileID: 451578328}
  m_GameObject: {fileID: 1758337463}
  m_Mesh: {fileID: 4300000, guid: 644255a0198675a44828611a93cd87d9, type: 3}
--- !u!1 &1817476845
GameObject:
  m_ObjectHideFlags: 0
  m_PrefabParentObject: {fileID: 0}
  m_PrefabInternal: {fileID: 0}
  serializedVersion: 4
  m_Component:
  - 4: {fileID: 1817476846}
  - 108: {fileID: 1817476847}
  m_Layer: 0
  m_Name: Point light
  m_TagString: Untagged
  m_Icon: {fileID: 0}
  m_NavMeshLayer: 0
  m_StaticEditorFlags: 4294967295
  m_IsActive: 1
--- !u!4 &1817476846
Transform:
  m_ObjectHideFlags: 0
  m_PrefabParentObject: {fileID: 0}
  m_PrefabInternal: {fileID: 0}
  m_GameObject: {fileID: 1817476845}
  m_LocalRotation: {x: 0, y: 0, z: 0, w: 1}
  m_LocalPosition: {x: 0.27, y: 1.87, z: -0.23}
  m_LocalScale: {x: 1, y: 1, z: 1}
  m_LocalEulerAnglesHint: {x: 0, y: 0, z: 0}
  m_Children: []
  m_Father: {fileID: 1603946219}
  m_RootOrder: 3
--- !u!108 &1817476847
Light:
  m_ObjectHideFlags: 0
  m_PrefabParentObject: {fileID: 0}
  m_PrefabInternal: {fileID: 0}
  m_GameObject: {fileID: 1817476845}
  m_Enabled: 1
  serializedVersion: 7
  m_Type: 2
  m_Color: {r: 0.76816607, g: 0.85294116, b: 0.63343424, a: 1}
  m_Intensity: 0.52
  m_Range: 8.975147
  m_SpotAngle: 30
  m_CookieSize: 10
  m_Shadows:
    m_Type: 0
    m_Resolution: -1
    m_CustomResolution: -1
    m_Strength: 1
    m_Bias: 0.05
    m_NormalBias: 0.4
    m_NearPlane: 0.2
  m_Cookie: {fileID: 0}
  m_DrawHalo: 0
  m_Flare: {fileID: 0}
  m_RenderMode: 0
  m_CullingMask:
    serializedVersion: 2
    m_Bits: 4294967295
  m_Lightmapping: 4
  m_AreaSize: {x: 1, y: 1}
  m_BounceIntensity: 0
  m_ShadowRadius: 0
  m_ShadowAngle: 0
--- !u!1 &1853575239
GameObject:
  m_ObjectHideFlags: 0
  m_PrefabParentObject: {fileID: 179510, guid: bee8d047e16101c438fb33382ab66935, type: 2}
  m_PrefabInternal: {fileID: 220698030}
  serializedVersion: 4
  m_Component:
  - 4: {fileID: 220698031}
  - 33: {fileID: 1853575242}
  - 23: {fileID: 1853575241}
  - 65: {fileID: 1853575240}
  m_Layer: 0
  m_Name: rock_e (2)
  m_TagString: Untagged
  m_Icon: {fileID: 0}
  m_NavMeshLayer: 0
  m_StaticEditorFlags: 4294967295
  m_IsActive: 1
--- !u!65 &1853575240
BoxCollider:
  m_ObjectHideFlags: 0
  m_PrefabParentObject: {fileID: 6553658, guid: bee8d047e16101c438fb33382ab66935,
    type: 2}
  m_PrefabInternal: {fileID: 220698030}
  m_GameObject: {fileID: 1853575239}
  m_Material: {fileID: 0}
  m_IsTrigger: 0
  m_Enabled: 1
  serializedVersion: 2
  m_Size: {x: 0.99902785, y: 1.2462721, z: 0.96796495}
  m_Center: {x: -0.055308983, y: 0.423136, z: 0.02385047}
--- !u!23 &1853575241
MeshRenderer:
  m_ObjectHideFlags: 0
  m_PrefabParentObject: {fileID: 2322844, guid: bee8d047e16101c438fb33382ab66935,
    type: 2}
  m_PrefabInternal: {fileID: 220698030}
  m_GameObject: {fileID: 1853575239}
  m_Enabled: 1
  m_CastShadows: 1
  m_ReceiveShadows: 1
  m_MotionVectors: 1
  m_LightProbeUsage: 1
  m_ReflectionProbeUsage: 1
  m_Materials:
  - {fileID: 2100000, guid: 76a6016f10bc74842bb69b1a1a32753e, type: 2}
  m_SubsetIndices: 
  m_StaticBatchRoot: {fileID: 0}
  m_ProbeAnchor: {fileID: 0}
  m_LightProbeVolumeOverride: {fileID: 0}
  m_ScaleInLightmap: 1
  m_PreserveUVs: 0
  m_IgnoreNormalsForChartDetection: 0
  m_ImportantGI: 0
  m_SelectedWireframeHidden: 0
  m_MinimumChartSize: 4
  m_AutoUVMaxDistance: 0.5
  m_AutoUVMaxAngle: 89
  m_LightmapParameters: {fileID: 0}
  m_SortingLayerID: 0
  m_SortingOrder: 0
--- !u!33 &1853575242
MeshFilter:
  m_ObjectHideFlags: 0
  m_PrefabParentObject: {fileID: 3338112, guid: bee8d047e16101c438fb33382ab66935,
    type: 2}
  m_PrefabInternal: {fileID: 220698030}
  m_GameObject: {fileID: 1853575239}
  m_Mesh: {fileID: 4300000, guid: 7f3f9dd74e3766a4dbf5bdbbc9ee54ff, type: 3}
--- !u!1001 &1941949286
Prefab:
  m_ObjectHideFlags: 0
  serializedVersion: 2
  m_Modification:
    m_TransformParent: {fileID: 1075876286}
    m_Modifications:
    - target: {fileID: 448766, guid: 1bbb9f65959851443977b14c98740663, type: 2}
      propertyPath: m_LocalPosition.x
      value: 2.2019999
      objectReference: {fileID: 0}
    - target: {fileID: 448766, guid: 1bbb9f65959851443977b14c98740663, type: 2}
      propertyPath: m_LocalPosition.y
      value: 1.42200005
      objectReference: {fileID: 0}
    - target: {fileID: 448766, guid: 1bbb9f65959851443977b14c98740663, type: 2}
      propertyPath: m_LocalPosition.z
      value: .861109972
      objectReference: {fileID: 0}
    - target: {fileID: 448766, guid: 1bbb9f65959851443977b14c98740663, type: 2}
      propertyPath: m_LocalRotation.x
      value: 0
      objectReference: {fileID: 0}
    - target: {fileID: 448766, guid: 1bbb9f65959851443977b14c98740663, type: 2}
      propertyPath: m_LocalRotation.y
      value: -.876271188
      objectReference: {fileID: 0}
    - target: {fileID: 448766, guid: 1bbb9f65959851443977b14c98740663, type: 2}
      propertyPath: m_LocalRotation.z
      value: 0
      objectReference: {fileID: 0}
    - target: {fileID: 448766, guid: 1bbb9f65959851443977b14c98740663, type: 2}
      propertyPath: m_LocalRotation.w
      value: -.481818318
      objectReference: {fileID: 0}
    - target: {fileID: 448766, guid: 1bbb9f65959851443977b14c98740663, type: 2}
      propertyPath: m_RootOrder
      value: 5
      objectReference: {fileID: 0}
    - target: {fileID: 448766, guid: 1bbb9f65959851443977b14c98740663, type: 2}
      propertyPath: m_LocalScale.x
      value: 1.50270128
      objectReference: {fileID: 0}
    - target: {fileID: 448766, guid: 1bbb9f65959851443977b14c98740663, type: 2}
      propertyPath: m_LocalScale.y
      value: 1.06076884
      objectReference: {fileID: 0}
    - target: {fileID: 448766, guid: 1bbb9f65959851443977b14c98740663, type: 2}
      propertyPath: m_LocalScale.z
      value: 1.75233293
      objectReference: {fileID: 0}
    m_RemovedComponents: []
  m_ParentPrefab: {fileID: 100100000, guid: 1bbb9f65959851443977b14c98740663, type: 2}
  m_RootGameObject: {fileID: 473990958}
  m_IsPrefabParent: 0
--- !u!4 &1941949287
Transform:
  m_ObjectHideFlags: 0
  m_PrefabParentObject: {fileID: 448766, guid: 1bbb9f65959851443977b14c98740663, type: 2}
  m_PrefabInternal: {fileID: 1941949286}
  m_GameObject: {fileID: 473990958}
  m_LocalRotation: {x: 0, y: -0.8762712, z: 0, w: -0.48181832}
  m_LocalPosition: {x: 2.202, y: 1.422, z: 0.86111}
  m_LocalScale: {x: 1.5027013, y: 1.0607688, z: 1.7523329}
  m_LocalEulerAnglesHint: {x: 0, y: 0, z: 0}
  m_Children: []
  m_Father: {fileID: 1075876286}
  m_RootOrder: 5
--- !u!1 &2071414836
GameObject:
  m_ObjectHideFlags: 0
  m_PrefabParentObject: {fileID: 182100, guid: 7505f79cb619cfd4ebb6af0704ad4260, type: 2}
  m_PrefabInternal: {fileID: 1271289478}
  serializedVersion: 4
  m_Component:
  - 4: {fileID: 1271289479}
  - 33: {fileID: 2071414839}
  - 23: {fileID: 2071414838}
  - 65: {fileID: 2071414837}
  m_Layer: 0
  m_Name: rock_p
  m_TagString: Untagged
  m_Icon: {fileID: 0}
  m_NavMeshLayer: 0
  m_StaticEditorFlags: 4294967295
  m_IsActive: 1
--- !u!65 &2071414837
BoxCollider:
  m_ObjectHideFlags: 0
  m_PrefabParentObject: {fileID: 6591330, guid: 7505f79cb619cfd4ebb6af0704ad4260,
    type: 2}
  m_PrefabInternal: {fileID: 1271289478}
  m_GameObject: {fileID: 2071414836}
  m_Material: {fileID: 0}
  m_IsTrigger: 0
  m_Enabled: 1
  serializedVersion: 2
  m_Size: {x: 1.5164369, y: 2.17221, z: 1.467186}
  m_Center: {x: -0.04007548, y: 0.886105, z: -0.0048939586}
--- !u!23 &2071414838
MeshRenderer:
  m_ObjectHideFlags: 0
  m_PrefabParentObject: {fileID: 2358500, guid: 7505f79cb619cfd4ebb6af0704ad4260,
    type: 2}
  m_PrefabInternal: {fileID: 1271289478}
  m_GameObject: {fileID: 2071414836}
  m_Enabled: 1
  m_CastShadows: 1
  m_ReceiveShadows: 1
  m_MotionVectors: 1
  m_LightProbeUsage: 1
  m_ReflectionProbeUsage: 1
  m_Materials:
  - {fileID: 2100000, guid: 76a6016f10bc74842bb69b1a1a32753e, type: 2}
  m_SubsetIndices: 
  m_StaticBatchRoot: {fileID: 0}
  m_ProbeAnchor: {fileID: 0}
  m_LightProbeVolumeOverride: {fileID: 0}
  m_ScaleInLightmap: 1
  m_PreserveUVs: 0
  m_IgnoreNormalsForChartDetection: 0
  m_ImportantGI: 0
  m_SelectedWireframeHidden: 0
  m_MinimumChartSize: 4
  m_AutoUVMaxDistance: 0.5
  m_AutoUVMaxAngle: 89
  m_LightmapParameters: {fileID: 0}
  m_SortingLayerID: 0
  m_SortingOrder: 0
--- !u!33 &2071414839
MeshFilter:
  m_ObjectHideFlags: 0
  m_PrefabParentObject: {fileID: 3340648, guid: 7505f79cb619cfd4ebb6af0704ad4260,
    type: 2}
  m_PrefabInternal: {fileID: 1271289478}
  m_GameObject: {fileID: 2071414836}
  m_Mesh: {fileID: 4300000, guid: 02b8195cc92dcfe4da1770d5c860a657, type: 3}
--- !u!1001 &2129868575
Prefab:
  m_ObjectHideFlags: 0
  serializedVersion: 2
  m_Modification:
    m_TransformParent: {fileID: 1075876286}
    m_Modifications:
    - target: {fileID: 422286, guid: 1643ab6b0160ab240a595db4bfb21c56, type: 2}
      propertyPath: m_LocalPosition.x
      value: 1.48199999
      objectReference: {fileID: 0}
    - target: {fileID: 422286, guid: 1643ab6b0160ab240a595db4bfb21c56, type: 2}
      propertyPath: m_LocalPosition.y
      value: -.314999998
      objectReference: {fileID: 0}
    - target: {fileID: 422286, guid: 1643ab6b0160ab240a595db4bfb21c56, type: 2}
      propertyPath: m_LocalPosition.z
      value: -1.63699996
      objectReference: {fileID: 0}
    - target: {fileID: 422286, guid: 1643ab6b0160ab240a595db4bfb21c56, type: 2}
      propertyPath: m_LocalRotation.x
      value: 0
      objectReference: {fileID: 0}
    - target: {fileID: 422286, guid: 1643ab6b0160ab240a595db4bfb21c56, type: 2}
      propertyPath: m_LocalRotation.y
      value: -.758018315
      objectReference: {fileID: 0}
    - target: {fileID: 422286, guid: 1643ab6b0160ab240a595db4bfb21c56, type: 2}
      propertyPath: m_LocalRotation.z
      value: 0
      objectReference: {fileID: 0}
    - target: {fileID: 422286, guid: 1643ab6b0160ab240a595db4bfb21c56, type: 2}
      propertyPath: m_LocalRotation.w
      value: -.652233243
      objectReference: {fileID: 0}
    - target: {fileID: 422286, guid: 1643ab6b0160ab240a595db4bfb21c56, type: 2}
      propertyPath: m_RootOrder
      value: 15
      objectReference: {fileID: 0}
    m_RemovedComponents: []
  m_ParentPrefab: {fileID: 100100000, guid: 1643ab6b0160ab240a595db4bfb21c56, type: 2}
  m_RootGameObject: {fileID: 478454498}
  m_IsPrefabParent: 0
--- !u!4 &2129868576
Transform:
  m_ObjectHideFlags: 0
  m_PrefabParentObject: {fileID: 422286, guid: 1643ab6b0160ab240a595db4bfb21c56, type: 2}
  m_PrefabInternal: {fileID: 2129868575}
  m_GameObject: {fileID: 478454498}
  m_LocalRotation: {x: 0, y: -0.7580183, z: 0, w: -0.65223324}
  m_LocalPosition: {x: 1.482, y: -0.315, z: -1.637}
  m_LocalScale: {x: 1, y: 1, z: 1}
  m_LocalEulerAnglesHint: {x: 0, y: 0, z: 0}
  m_Children: []
  m_Father: {fileID: 1075876286}
  m_RootOrder: 15
