#
## Alias OBJ Material File
# Exported from SketchUp, (c) 2000-2012 Trimble Navigation Limited

newmtl BIFF
Ka 0.000000 0.000000 0.000000
Kd 0.501961 0.501961 0.501961
Ks 0.000000 0.000000 0.000000
map_Kd BIFF/BIFF.jpg

newmtl Cin_1
Ka 0.000000 0.000000 0.000000
Kd 0.501961 0.501961 0.501961
Ks 0.000000 0.000000 0.000000
map_Kd BIFF/Cin_1.jpg

newmtl FrontColor
Ka 0.000000 0.000000 0.000000
Kd 1.000000 1.000000 1.000000
Ks 0.330000 0.330000 0.330000

newmtl Color_006
Ka 0.000000 0.000000 0.000000
Kd 0.337255 0.337255 0.337255
Ks 0.330000 0.330000 0.330000

newmtl Color_005
Ka 0.000000 0.000000 0.000000
Kd 0.447059 0.447059 0.447059
Ks 0.330000 0.330000 0.330000

newmtl entr_e
Ka 0.000000 0.000000 0.000000
Kd 0.501961 0.501961 0.501961
Ks 0.000000 0.000000 0.000000
map_Kd BIFF/entr_e.jpg

newmtl bus
Ka 0.000000 0.000000 0.000000
Kd 0.501961 0.501961 0.501961
Ks 0.000000 0.000000 0.000000
map_Kd BIFF/bus.jpg

newmtl Capture
Ka 0.000000 0.000000 0.000000
Kd 0.501961 0.501961 0.501961
Ks 0.000000 0.000000 0.000000
map_Kd BIFF/Capture.jpg

newmtl Color_I22
Ka 0.000000 0.000000 0.000000
Kd 0.682353 0.039216 0.200000
Ks 0.330000 0.330000 0.330000

newmtl Color_I25
Ka 0.000000 0.000000 0.000000
Kd 0.156863 0.156863 0.200000
Ks 0.330000 0.330000 0.330000

newmtl c4448ca4b0bce385bf1d7d1e4934a3dc_1299837679
Ka 0.000000 0.000000 0.000000
Kd 0.501961 0.501961 0.501961
Ks 0.000000 0.000000 0.000000
map_Kd BIFF/c4448ca4b0bce385bf1d7d1e4934a3dc_1299837679.jpg

